# This file uses centimeters as units for non-parametric coordinates.

v 0.120609 0.031564 0.124487
v 0.107383 0.164885 0.096059
v 0.107383 0.161859 -0.206717
v 0.127744 0.050809 -0.236918
v 0.096676 0.246523 0.026889
v 0.096676 0.243050 -0.154097
v 0.120609 0.031564 0.225498
v 0.108358 0.143703 0.223985
v 0.127744 0.111507 -0.231708
v 0.129427 0.097514 0.105234
v 0.129427 0.097514 0.236918
v 0.096127 0.247362 -0.103132
v 0.122751 0.163294 -0.103132
v 0.135978 0.113156 -0.112510
v 0.135978 0.031564 -0.117474
v 0.129427 0.089843 0.136129
v 0.129427 0.088141 0.202138
v 0.120609 0.030430 0.212474
v 0.132684 0.031564 -0.200100
v 0.144795 0.094717 -0.133835
v 0.141502 0.090975 -0.196014
v -0.119785 0.031564 0.124487
v -0.106559 0.164885 0.096059
v -0.106559 0.161859 -0.206717
v -0.126921 0.050809 -0.236918
v -0.095852 0.246523 0.026889
v -0.095852 0.243050 -0.154097
v -0.119785 0.031564 0.225498
v -0.107534 0.143703 0.223985
v -0.126921 0.111507 -0.231708
v -0.128603 0.097514 0.105234
v -0.128603 0.097514 0.236918
v -0.095303 0.247362 -0.103132
v -0.121928 0.163294 -0.103132
v -0.135154 0.113156 -0.112510
v -0.135154 0.031564 -0.117474
v -0.128603 0.089843 0.136129
v -0.128603 0.088141 0.202138
v -0.119785 0.030430 0.212474
v -0.131860 0.031564 -0.200100
v -0.143971 0.094717 -0.133835
v -0.140678 0.090975 -0.196014
vt 0.825172 0.481314
vt 0.643150 0.677225
vt 0.812845 0.550299
vt 0.551010 0.552488
vt 0.807546 0.678065
vt 0.807546 0.971139
vt 0.538950 0.459792
vt 0.643150 0.971979
vt 0.344129 0.868668
vt 0.812845 0.665968
vt 0.641934 0.664814
vt 0.324861 0.593213
vt 0.555692 0.660833
vt 0.382853 0.523344
vt 0.365853 0.459792
vt 0.831697 0.369051
vt 0.513642 0.369051
vt 0.949006 0.548325
vt 0.317312 0.932897
vt 0.037071 0.358816
vt 0.037071 0.021480
vt 0.015957 0.021480
vt 0.015957 0.358816
vt 0.053827 0.358816
vt 0.053827 0.021480
vt 0.705906 0.358816
vt 0.705906 0.021480
vt 0.879838 0.660036
vt 0.981856 0.479045
vt 0.411571 0.446896
vt 0.498339 0.449238
vt 0.676352 0.021480
vt 0.676352 0.358816
vt 0.571959 0.021480
vt 0.179709 0.021480
vt 0.555692 0.988371
vt 0.042527 0.932897
vt 0.393944 0.659340
vt 0.393944 0.989864
vt 0.351389 0.522276
vt 0.019591 0.522276
vt 0.046120 0.593213
vt 0.179709 0.358816
vt 0.571959 0.358816
vt 0.160836 0.021480
vt 0.160836 0.358816
vt 0.380864 0.369051
vt 0.871986 0.677225
vt 0.397984 0.367491
vt 0.853203 0.455944
vt 0.871986 0.971979
vt 0.934937 0.450795
vt 0.988705 0.395531
vt 0.940308 0.369051
vt 0.015711 0.868668
vt 0.310911 0.707596
vt 0.060070 0.707596
vt 0.825172 0.481314
vt 0.538950 0.459792
vt 0.551010 0.552488
vt 0.812845 0.550299
vt 0.641934 0.664814
vt 0.765593 0.021480
vt 0.765593 0.358816
vt 0.598482 0.021480
vt 0.598482 0.358816
vt 0.879838 0.660036
vt 0.513642 0.369051
vt 0.026934 0.776962
vt 0.332905 0.776962
vt 0.812845 0.665968
vt 0.382853 0.523344
vt 0.365853 0.459792
vt 0.831697 0.369051
vt 0.351389 0.436763
vt 0.019591 0.436763
vt 0.940308 0.369051
vt 0.988705 0.395531
vt 0.934937 0.450795
vt 0.853203 0.455944
vt 0.397984 0.367491
vt 0.380864 0.369051
vt 0.498339 0.449238
vt 0.411571 0.446896
vt 0.981856 0.479045
vt 0.949006 0.548325
vn 0.988987 0.145816 0.025337
vn 0.962090 0.272659 0.006308
vn 0.447318 0.819034 0.359290
vn 0.991264 0.123993 0.044964
vn 0.970455 0.241278 -0.001309
vn 0.589680 0.589407 0.552156
vn 0.225122 0.858848 0.460109
vn 0.298295 0.075243 0.951504
vn 0.997245 -0.054865 0.049915
vn 0.997404 -0.056993 0.044022
vn 0.283190 0.533728 -0.796830
vn 0.360543 0.554833 -0.749780
vn 0.233527 0.279349 -0.931359
vn 0.997297 -0.071763 0.015773
vn 0.998392 -0.055023 -0.013662
vn 0.094007 -0.182398 0.978720
vn 0.989467 -0.141386 0.031076
vn 0.000000 -0.996231 0.086742
vn 0.000000 -0.996231 0.086742
vn 0.000000 -0.996231 0.086742
vn 0.000000 -0.996231 0.086742
vn 0.000000 -0.176294 -0.984338
vn 0.000000 -0.176294 -0.984338
vn 0.000000 -0.176294 -0.984338
vn 0.000000 -0.176294 -0.984338
vn 0.929403 0.364665 0.056835
vn 0.954963 0.240437 -0.173883
vn 0.171395 0.071346 -0.982616
vn 0.960287 -0.049245 -0.274634
vn 0.000000 -0.068613 0.997643
vn 0.000000 -0.068613 0.997643
vn 0.000000 -0.068613 0.997643
vn 0.000000 -0.068613 0.997643
vn -0.225122 0.858848 0.460109
vn -0.298295 0.075243 0.951504
vn 0.000000 0.999979 0.006451
vn 0.000000 0.999815 -0.019262
vn 0.000000 0.999815 -0.019262
vn 0.000000 0.999979 0.006451
vn 0.000000 0.232326 -0.972638
vn -0.283189 0.533728 -0.796831
vn 0.000000 -1.000000 0.000000
vn 0.000000 -1.000000 0.000000
vn 0.000000 -1.000000 0.000000
vn 0.000000 -1.000000 0.000000
vn -0.988988 0.145812 0.025337
vn -0.991264 0.123991 0.044965
vn -0.447318 0.819034 0.359291
vn -0.962090 0.272660 0.006309
vn -0.589678 0.589409 0.552156
vn -0.360541 0.554834 -0.749779
vn -0.970454 0.241284 -0.001309
vn -0.997245 -0.054865 0.049915
vn -0.997404 -0.056993 0.044022
vn -0.094007 -0.182398 0.978720
vn 0.000000 0.085520 -0.996337
vn -0.952570 0.266930 -0.146147
vn 0.000000 0.996440 -0.084301
vn 0.000000 0.996440 -0.084301
vn -0.997297 -0.071764 0.015773
vn -0.998392 -0.055023 -0.013662
vn -0.989467 -0.141386 0.031076
vn 0.000000 -0.999668 -0.025776
vn 0.000000 -0.999668 -0.025776
vn 0.000000 -0.999668 -0.025776
vn 0.000000 -0.999668 -0.025776
vn 0.000000 -0.195893 0.980625
vn 0.000000 -0.195893 0.980625
vn 0.000000 -0.195893 0.980625
vn 0.000000 -0.195893 0.980625
vn -0.929408 0.364651 0.056839
vn -0.954969 0.240426 -0.173868
vn -0.960293 -0.049247 -0.274611
vn -0.960294 -0.049247 -0.274611
vn 0.000000 -0.886233 -0.463240
vn 0.000000 -0.886233 -0.463240
vn 0.000000 -0.886233 -0.463240
vn 0.000000 -0.886233 -0.463240
vn 0.000000 -0.250790 -0.968042
vn 0.000000 -0.250790 -0.968042
vn 0.000000 -0.250790 -0.968042
vn 0.000000 -0.250790 -0.968042
vn 0.000000 -0.998194 0.060072
vn 0.000000 -0.998194 0.060072
vn 0.000000 -0.998194 0.060072
vn 0.000000 -0.998194 0.060072
g chassi
f 14/1/1 13/3/2 2/4/3 10/7/4
f 13/3/2 12/10/5 5/11/6 2/4/3
f 10/7/4 2/4/3 8/14/7 11/15/8
f 15/16/9 14/1/1 10/7/4 1/17/10
f 13/3/2 3/18/11 6/28/12 12/10/5
f 14/1/1 9/29/13 3/18/11 13/3/2
f 10/7/4 11/15/8 17/30/14 16/31/15
f 1/17/10 10/7/4 16/31/15
f 7/47/16 18/49/17 17/30/14 11/15/8
f 39/20/18 18/21/19 7/22/20 28/23/21
f 38/24/22 17/25/23 18/21/24 39/20/25
f 15/16/9 20/50/26 14/1/1
f 14/1/1 20/50/26 21/52/27 9/29/13
f 4/53/28 9/29/13 21/52/27 19/54/29
f 40/26/30 19/27/31 21/32/32 42/33/33
f 11/9/8 8/19/7 29/37/34 32/55/35
f 5/2/36 12/5/37 33/6/38 26/8/39
f 3/12/11 9/40/13 30/41/40 24/42/41
f 15/34/42 1/35/43 22/43/44 36/44/45
f 35/58/46 31/59/47 23/60/48 34/61/49
f 2/13/3 5/2/6 26/8/50 23/36/48
f 6/56/12 3/12/11 24/42/41 27/57/51
f 34/61/49 23/60/48 26/62/50 33/71/52
f 8/38/7 2/13/3 23/36/48 29/39/34
f 29/72/34 23/60/48 31/59/47 32/73/35
f 36/74/53 22/68/54 31/59/47 35/58/46
f 7/70/16 11/9/8 32/55/35 28/69/55
f 9/40/13 4/75/28 25/76/56 30/41/40
f 27/67/51 24/86/41 34/61/49 33/71/52
f 24/86/41 30/85/57 35/58/46 34/61/49
f 12/5/37 6/48/58 27/51/59 33/6/38
f 38/84/60 32/73/35 31/59/47 37/83/61
f 37/83/61 31/59/47 22/68/54
f 28/82/55 32/73/35 38/84/60 39/81/62
f 16/45/63 17/25/64 38/24/65 37/46/66
f 1/35/67 16/45/68 37/46/69 22/43/70
f 36/74/53 35/58/46 41/80/71
f 35/58/46 30/85/57 42/79/72 41/80/71
f 42/79/72 30/85/57 25/78/73 40/77/74
f 4/63/75 19/27/76 40/26/77 25/64/78
f 20/65/79 15/34/80 36/44/81 41/66/82
f 21/32/83 20/65/84 41/66/85 42/33/86
v 0.107466 0.072145 0.138309
v 0.107466 0.042261 0.125931
v 0.107466 0.012378 0.138309
v 0.107466 0.000000 0.168193
v 0.107466 0.012378 0.198076
v 0.107466 0.042261 0.210454
v 0.107466 0.072145 0.198076
v 0.107466 0.084523 0.168193
v 0.145525 0.072145 0.138309
v 0.145525 0.042261 0.125931
v 0.145525 0.012378 0.138309
v 0.145525 0.000000 0.168193
v 0.145525 0.012378 0.198076
v 0.145525 0.042261 0.210454
v 0.145525 0.072145 0.198076
v 0.145525 0.084523 0.168193
vt 0.781575 0.350275
vt 0.992519 0.350275
vt 0.781575 0.218418
vt 0.992519 0.350275
vt 0.992519 0.218418
vt 0.781575 0.350275
vt 0.781575 0.218418
vt 0.992519 0.350275
vt 0.992519 0.218418
vt 0.781575 0.350275
vt 0.781575 0.218418
vt 0.992519 0.350275
vt 0.992519 0.218418
vt 0.781575 0.350275
vt 0.781575 0.218418
vt 0.883675 0.209570
vt 0.788334 0.114227
vt 0.951093 0.181645
vt 0.816258 0.181645
vt 0.979018 0.114227
vt 0.951093 0.046811
vt 0.883675 0.018886
vt 0.816258 0.046811
vt 0.781575 0.350275
vt 0.992519 0.218418
vt 0.781575 0.218418
vn 0.000000 0.382674 -0.923883
vn 0.000000 0.382674 -0.923883
vn 0.728293 0.484556 -0.484557
vn 0.832563 0.000000 -0.553931
vn 0.000000 -0.707107 -0.707106
vn 0.000000 0.000000 -1.000000
vn 0.832563 0.000000 -0.553931
vn 0.857351 -0.363971 -0.363970
vn 0.000000 -1.000000 0.000000
vn 0.000000 -0.707107 -0.707106
vn 0.857351 -0.363971 -0.363970
vn 0.832563 -0.553930 0.000000
vn 0.000000 -0.707107 0.707106
vn 0.000000 -1.000000 0.000000
vn 0.832563 -0.553930 0.000000
vn 0.728293 -0.484557 0.484556
vn 0.000000 0.000000 1.000000
vn 0.000000 -0.707107 0.707106
vn 0.728293 -0.484557 0.484556
vn 0.438457 0.000000 0.898752
vn 0.000000 0.707106 0.707107
vn 0.000000 0.000000 1.000000
vn 0.438457 0.000000 0.898752
vn 0.743086 0.473193 0.473193
vn 0.000000 1.000000 0.000000
vn 0.000000 0.707106 0.707107
vn 0.743086 0.473193 0.473193
vn 0.438457 0.898752 0.000000
vn 0.000000 0.707107 -0.707107
vn 0.000000 1.000000 0.000000
vn 0.438457 0.898752 0.000000
vn 0.728293 0.484556 -0.484557
vn 0.728293 0.484556 -0.484557
vn 0.743086 0.473193 0.473193
vn 0.832563 0.000000 -0.553931
vn 0.832563 0.000000 -0.553931
vn 0.743086 0.473193 0.473193
vn 0.857351 -0.363971 -0.363970
vn 0.857351 -0.363971 -0.363970
vn 0.743086 0.473193 0.473193
vn 0.832563 -0.553930 0.000000
vn 0.832563 -0.553930 0.000000
vn 0.743086 0.473193 0.473193
vn 0.728293 -0.484557 0.484556
vn 0.728293 -0.484557 0.484556
vn 0.743086 0.473193 0.473193
vn 0.438457 0.000000 0.898752
vn 0.438457 0.898752 0.000000
vn 0.743086 0.473193 0.473193
vn 0.728293 0.484556 -0.484557
g fl_wheel
f 44/110/87 43/88/88 51/111/89 52/112/90
f 45/90/91 44/87/92 52/89/93 53/91/94
f 46/92/95 45/90/96 53/91/97 54/93/98
f 47/94/99 46/92/100 54/93/101 55/95/102
f 48/96/103 47/94/104 55/95/105 56/97/106
f 49/98/107 48/96/108 56/97/109 57/99/110
f 50/100/111 49/98/112 57/99/113 58/101/114
f 43/88/115 50/100/116 58/101/117 51/111/118
f 51/104/119 57/105/120 52/106/121
f 52/106/122 57/105/123 53/107/124
f 53/107/125 57/105/126 54/108/127
f 54/108/128 57/105/129 55/109/130
f 55/109/131 57/105/132 56/103/133
f 58/102/134 57/105/135 51/104/136
v 0.107466 0.072145 -0.191755
v 0.107466 0.042261 -0.204133
v 0.107466 0.012378 -0.191755
v 0.107466 0.000000 -0.161871
v 0.107466 0.012378 -0.131988
v 0.107466 0.042261 -0.119610
v 0.107466 0.072145 -0.131988
v 0.107466 0.084523 -0.161871
v 0.145525 0.072145 -0.191755
v 0.145525 0.042261 -0.204133
v 0.145525 0.012378 -0.191755
v 0.145525 0.000000 -0.161871
v 0.145525 0.012378 -0.131988
v 0.145525 0.042261 -0.119610
v 0.145525 0.072145 -0.131988
v 0.145525 0.084523 -0.161871
vt 0.781575 0.350275
vt 0.992519 0.350275
vt 0.781575 0.218418
vt 0.992519 0.350275
vt 0.992519 0.218418
vt 0.781575 0.350275
vt 0.781575 0.218418
vt 0.992519 0.350275
vt 0.992519 0.218418
vt 0.781575 0.350275
vt 0.781575 0.218418
vt 0.992519 0.350275
vt 0.992519 0.218418
vt 0.781575 0.350275
vt 0.781575 0.218418
vt 0.883675 0.209570
vt 0.788334 0.114227
vt 0.951093 0.181645
vt 0.816258 0.181645
vt 0.979018 0.114227
vt 0.951093 0.046811
vt 0.883675 0.018886
vt 0.816258 0.046811
vt 0.781575 0.350275
vt 0.992519 0.218418
vt 0.781575 0.218418
vn 0.000000 0.382674 -0.923883
vn 0.000000 0.382674 -0.923883
vn 0.728293 0.484556 -0.484557
vn 0.832563 0.000000 -0.553931
vn 0.000000 -0.707107 -0.707106
vn 0.000000 0.000000 -1.000000
vn 0.832563 0.000000 -0.553931
vn 0.857351 -0.363971 -0.363970
vn 0.000000 -1.000000 0.000000
vn 0.000000 -0.707107 -0.707106
vn 0.857351 -0.363971 -0.363970
vn 0.832563 -0.553930 0.000000
vn 0.000000 -0.707107 0.707106
vn 0.000000 -1.000000 0.000000
vn 0.832563 -0.553930 0.000000
vn 0.728293 -0.484557 0.484556
vn 0.000000 0.000000 1.000000
vn 0.000000 -0.707107 0.707106
vn 0.728293 -0.484557 0.484556
vn 0.438457 0.000000 0.898752
vn 0.000000 0.707106 0.707107
vn 0.000000 0.000000 1.000000
vn 0.438457 0.000000 0.898752
vn 0.743086 0.473193 0.473193
vn 0.000000 1.000000 0.000000
vn 0.000000 0.707106 0.707107
vn 0.743086 0.473193 0.473193
vn 0.438457 0.898752 0.000000
vn 0.000000 0.707107 -0.707107
vn 0.000000 1.000000 0.000000
vn 0.438457 0.898752 0.000000
vn 0.728293 0.484556 -0.484557
vn 0.728293 0.484556 -0.484557
vn 0.743086 0.473193 0.473193
vn 0.832563 0.000000 -0.553931
vn 0.832563 0.000000 -0.553931
vn 0.743086 0.473193 0.473193
vn 0.857351 -0.363971 -0.363970
vn 0.857351 -0.363971 -0.363970
vn 0.743086 0.473193 0.473193
vn 0.832563 -0.553930 0.000000
vn 0.832563 -0.553930 0.000000
vn 0.743086 0.473193 0.473193
vn 0.728293 -0.484557 0.484556
vn 0.728293 -0.484557 0.484556
vn 0.743086 0.473193 0.473193
vn 0.438457 0.000000 0.898752
vn 0.438457 0.898752 0.000000
vn 0.743086 0.473193 0.473193
vn 0.728293 0.484556 -0.484557
g bl_wheel
f 60/136/137 59/114/138 67/137/139 68/138/140
f 61/116/141 60/113/142 68/115/143 69/117/144
f 62/118/145 61/116/146 69/117/147 70/119/148
f 63/120/149 62/118/150 70/119/151 71/121/152
f 64/122/153 63/120/154 71/121/155 72/123/156
f 65/124/157 64/122/158 72/123/159 73/125/160
f 66/126/161 65/124/162 73/125/163 74/127/164
f 59/114/165 66/126/166 74/127/167 67/137/168
f 67/130/169 73/131/170 68/132/171
f 68/132/172 73/131/173 69/133/174
f 69/133/175 73/131/176 70/134/177
f 70/134/178 73/131/179 71/135/180
f 71/135/181 73/131/182 72/129/183
f 74/128/184 73/131/185 67/130/186
v -0.107515 0.072145 -0.191755
v -0.107515 0.042261 -0.204133
v -0.107515 0.012378 -0.191755
v -0.107515 0.000000 -0.161871
v -0.107515 0.012378 -0.131988
v -0.107515 0.042261 -0.119610
v -0.107515 0.072145 -0.131988
v -0.107515 0.084523 -0.161871
v -0.145574 0.072145 -0.191755
v -0.145574 0.042261 -0.204133
v -0.145574 0.012378 -0.191755
v -0.145574 0.000000 -0.161871
v -0.145574 0.012378 -0.131988
v -0.145574 0.042261 -0.119610
v -0.145574 0.072145 -0.131988
v -0.145574 0.084523 -0.161871
vt 0.781575 0.350275
vt 0.992519 0.350275
vt 0.781575 0.218418
vt 0.992519 0.350275
vt 0.992519 0.218418
vt 0.781575 0.350275
vt 0.781575 0.218418
vt 0.992519 0.350275
vt 0.992519 0.218418
vt 0.781575 0.350275
vt 0.781575 0.218418
vt 0.992519 0.350275
vt 0.992519 0.218418
vt 0.781575 0.350275
vt 0.781575 0.218418
vt 0.883675 0.209570
vt 0.788334 0.114227
vt 0.951093 0.181645
vt 0.816258 0.181645
vt 0.979018 0.114227
vt 0.951093 0.046811
vt 0.883675 0.018886
vt 0.816258 0.046811
vt 0.781575 0.350275
vt 0.992519 0.218418
vt 0.781575 0.218418
vn 0.000000 0.382674 -0.923883
vn -0.832563 0.000000 -0.553931
vn -0.728293 0.484556 -0.484557
vn 0.000000 0.382674 -0.923883
vn 0.000000 -0.707107 -0.707106
vn -0.857351 -0.363971 -0.363970
vn -0.832563 0.000000 -0.553931
vn -0.000000 0.000000 -1.000000
vn 0.000000 -1.000000 0.000000
vn -0.832563 -0.553930 0.000000
vn -0.857351 -0.363971 -0.363970
vn 0.000000 -0.707107 -0.707106
vn 0.000000 -0.707107 0.707106
vn -0.728293 -0.484557 0.484556
vn -0.832563 -0.553930 0.000000
vn 0.000000 -1.000000 0.000000
vn 0.000000 0.000000 1.000000
vn -0.438457 0.000000 0.898752
vn -0.728293 -0.484557 0.484556
vn 0.000000 -0.707107 0.707106
vn 0.000000 0.707106 0.707107
vn -0.743086 0.473193 0.473193
vn -0.438457 0.000000 0.898752
vn 0.000000 0.000000 1.000000
vn 0.000000 1.000000 0.000000
vn -0.438457 0.898752 0.000000
vn -0.743086 0.473193 0.473193
vn 0.000000 0.707106 0.707107
vn 0.000000 0.707107 -0.707107
vn -0.728293 0.484556 -0.484557
vn -0.438457 0.898752 0.000000
vn 0.000000 1.000000 0.000000
vn -0.728293 0.484556 -0.484557
vn -0.832563 0.000000 -0.553931
vn -0.743086 0.473193 0.473193
vn -0.832563 0.000000 -0.553931
vn -0.857351 -0.363971 -0.363970
vn -0.743086 0.473193 0.473193
vn -0.857351 -0.363971 -0.363970
vn -0.832563 -0.553930 0.000000
vn -0.743086 0.473193 0.473193
vn -0.832563 -0.553930 0.000000
vn -0.728293 -0.484557 0.484556
vn -0.743086 0.473193 0.473193
vn -0.728293 -0.484557 0.484556
vn -0.438457 0.000000 0.898752
vn -0.743086 0.473193 0.473193
vn -0.438457 0.898752 0.000000
vn -0.728293 0.484556 -0.484557
vn -0.743086 0.473193 0.473193
g br_wheel
f 76/162/187 84/164/188 83/163/189 75/140/190
f 77/142/191 85/143/192 84/141/193 76/139/194
f 78/144/195 86/145/196 85/143/197 77/142/198
f 79/146/199 87/147/200 86/145/201 78/144/202
f 80/148/203 88/149/204 87/147/205 79/146/206
f 81/150/207 89/151/208 88/149/209 80/148/210
f 82/152/211 90/153/212 89/151/213 81/150/214
f 75/140/215 83/163/216 90/153/217 82/152/218
f 83/156/219 84/158/220 89/157/221
f 84/158/222 85/159/223 89/157/224
f 85/159/225 86/160/226 89/157/227
f 86/160/228 87/161/229 89/157/230
f 87/161/231 88/155/232 89/157/233
f 90/154/234 83/156/235 89/157/236
v -0.107515 0.072145 0.138309
v -0.107515 0.042261 0.125931
v -0.107515 0.012378 0.138309
v -0.107515 0.000000 0.168193
v -0.107515 0.012378 0.198076
v -0.107515 0.042261 0.210454
v -0.107515 0.072145 0.198076
v -0.107515 0.084523 0.168193
v -0.145574 0.072145 0.138309
v -0.145574 0.042261 0.125931
v -0.145574 0.012378 0.138309
v -0.145574 0.000000 0.168193
v -0.145574 0.012378 0.198076
v -0.145574 0.042261 0.210454
v -0.145574 0.072145 0.198076
v -0.145574 0.084523 0.168193
vt 0.781575 0.350275
vt 0.992519 0.350275
vt 0.781575 0.218418
vt 0.992519 0.350275
vt 0.992519 0.218418
vt 0.781575 0.350275
vt 0.781575 0.218418
vt 0.992519 0.350275
vt 0.992519 0.218418
vt 0.781575 0.350275
vt 0.781575 0.218418
vt 0.992519 0.350275
vt 0.992519 0.218418
vt 0.781575 0.350275
vt 0.781575 0.218418
vt 0.883675 0.209570
vt 0.788334 0.114227
vt 0.951093 0.181645
vt 0.816258 0.181645
vt 0.979018 0.114227
vt 0.951093 0.046811
vt 0.883675 0.018886
vt 0.816258 0.046811
vt 0.781575 0.350275
vt 0.992519 0.218418
vt 0.781575 0.218418
vn 0.000000 0.382674 -0.923883
vn -0.832563 0.000000 -0.553931
vn -0.728293 0.484556 -0.484557
vn 0.000000 0.382674 -0.923883
vn 0.000000 -0.707107 -0.707106
vn -0.857351 -0.363971 -0.363970
vn -0.832563 0.000000 -0.553931
vn -0.000000 0.000000 -1.000000
vn 0.000000 -1.000000 0.000000
vn -0.832563 -0.553930 0.000000
vn -0.857351 -0.363971 -0.363970
vn 0.000000 -0.707107 -0.707106
vn 0.000000 -0.707107 0.707106
vn -0.728293 -0.484557 0.484556
vn -0.832563 -0.553930 0.000000
vn 0.000000 -1.000000 0.000000
vn 0.000000 0.000000 1.000000
vn -0.438457 0.000000 0.898752
vn -0.728293 -0.484557 0.484556
vn 0.000000 -0.707107 0.707106
vn 0.000000 0.707106 0.707107
vn -0.743086 0.473193 0.473193
vn -0.438457 0.000000 0.898752
vn 0.000000 0.000000 1.000000
vn 0.000000 1.000000 0.000000
vn -0.438457 0.898752 0.000000
vn -0.743086 0.473193 0.473193
vn 0.000000 0.707106 0.707107
vn 0.000000 0.707107 -0.707107
vn -0.728293 0.484556 -0.484557
vn -0.438457 0.898752 0.000000
vn 0.000000 1.000000 0.000000
vn -0.728293 0.484556 -0.484557
vn -0.832563 0.000000 -0.553931
vn -0.743086 0.473193 0.473193
vn -0.832563 0.000000 -0.553931
vn -0.857351 -0.363971 -0.363970
vn -0.743086 0.473193 0.473193
vn -0.857351 -0.363971 -0.363970
vn -0.832563 -0.553930 0.000000
vn -0.743086 0.473193 0.473193
vn -0.832563 -0.553930 0.000000
vn -0.728293 -0.484557 0.484556
vn -0.743086 0.473193 0.473193
vn -0.728293 -0.484557 0.484556
vn -0.438457 0.000000 0.898752
vn -0.743086 0.473193 0.473193
vn -0.438457 0.898752 0.000000
vn -0.728293 0.484556 -0.484557
vn -0.743086 0.473193 0.473193
g fr_wheel
f 92/188/237 100/190/238 99/189/239 91/166/240
f 93/168/241 101/169/242 100/167/243 92/165/244
f 94/170/245 102/171/246 101/169/247 93/168/248
f 95/172/249 103/173/250 102/171/251 94/170/252
f 96/174/253 104/175/254 103/173/255 95/172/256
f 97/176/257 105/177/258 104/175/259 96/174/260
f 98/178/261 106/179/262 105/177/263 97/176/264
f 91/166/265 99/189/266 106/179/267 98/178/268
f 99/182/269 100/184/270 105/183/271
f 100/184/272 101/185/273 105/183/274
f 101/185/275 102/186/276 105/183/277
f 102/186/278 103/187/279 105/183/280
f 103/187/281 104/181/282 105/183/283
f 106/180/284 99/182/285 105/183/286
