# This file uses centimeters as units for non-parametric coordinates.

mtllib gizmosoft.mtl
v -0.500000 -0.500000 -0.500000
v 0.500000 0.500000 -0.500000
v 0.500000 0.500000 0.500000
v -0.500000 0.500000 0.500000
v 0.500000 -0.500000 0.500000
v 0.500000 6.972491 -0.500000
v -0.500000 6.972491 -0.500000
v -0.500000 6.972491 0.500000
v 0.500000 6.972491 0.500000
v 0.500000 0.500000 6.972491
v -0.500000 0.500000 6.972491
v -0.500000 -0.500000 6.972491
v 0.500000 -0.500000 6.972491
v 6.972491 -0.500000 0.500000
v 6.972491 -0.500000 -0.500000
v 6.972491 0.500000 -0.500000
v 6.972491 0.500000 0.500000
vt 0.697847 0.542699
vt 0.752424 0.597276
vt 0.752424 0.950525
vt 0.697847 0.950525
vt 0.812051 0.542699
vt 0.866628 0.542699
vt 0.866628 0.895948
vt 0.812051 0.895948
vt 0.640672 0.597276
vt 0.695249 0.542699
vt 0.695249 0.950525
vt 0.640672 0.950525
vt 0.809526 0.895948
vt 0.754949 0.895948
vt 0.754949 0.542699
vt 0.809526 0.542699
vt 0.616517 0.595175
vt 0.895677 0.595175
vt 0.895677 0.874336
vt 0.616517 0.874336
vt 0.210589 0.395766
vt 0.164622 0.441734
vt 0.164622 0.098240
vt 0.210589 0.098240
vt 0.309607 0.098240
vt 0.355575 0.098240
vt 0.355575 0.395766
vt 0.309607 0.395766
vt 0.261299 0.098240
vt 0.307267 0.098240
vt 0.307267 0.395766
vt 0.261299 0.395766
vt 0.258959 0.441734
vt 0.212992 0.395766
vt 0.212992 0.098240
vt 0.258959 0.098240
vt 0.357915 0.098240
vt 0.403883 0.098240
vt 0.403883 0.144208
vt 0.357915 0.144208
vt 0.294723 0.613998
vt 0.330851 0.613998
vt 0.330851 0.650127
vt 0.294723 0.650127
vt 0.142803 0.650127
vt 0.178931 0.613998
vt 0.178931 0.883968
vt 0.142803 0.883968
vt 0.218787 0.613998
vt 0.254916 0.613998
vt 0.254916 0.847839
vt 0.218787 0.847839
vt 0.180819 0.613998
vt 0.216948 0.650127
vt 0.216948 0.883968
vt 0.180819 0.883968
vt 0.256755 0.613998
vt 0.292883 0.613998
vt 0.292883 0.847839
vt 0.256755 0.847839
vn 0.000000 1.000000 0.000000
vn 0.000000 1.000000 0.000000
vn 0.000000 1.000000 0.000000
vn 0.000000 1.000000 0.000000
vn 0.000000 0.000000 1.000000
vn 0.000000 0.000000 1.000000
vn 0.000000 0.000000 1.000000
vn 0.000000 0.000000 1.000000
vn 1.000000 0.000000 0.000000
vn 1.000000 0.000000 0.000000
vn 1.000000 0.000000 0.000000
vn 1.000000 0.000000 0.000000
vn 0.000000 0.000000 -1.000000
vn 0.000000 0.000000 -1.000000
vn 0.000000 0.000000 -1.000000
vn 0.000000 0.000000 -1.000000
vn -1.000000 0.000000 0.000000
vn -1.000000 0.000000 0.000000
vn -1.000000 0.000000 0.000000
vn -1.000000 0.000000 0.000000
vn 0.000000 0.000000 1.000000
vn 0.000000 0.000000 1.000000
vn 0.000000 0.000000 1.000000
vn 0.000000 0.000000 1.000000
vn 1.000000 0.000000 0.000000
vn 1.000000 0.000000 0.000000
vn 1.000000 0.000000 0.000000
vn 1.000000 0.000000 0.000000
vn 0.000000 1.000000 0.000000
vn 0.000000 1.000000 0.000000
vn 0.000000 1.000000 0.000000
vn 0.000000 1.000000 0.000000
vn -1.000000 0.000000 0.000000
vn -1.000000 0.000000 0.000000
vn 0.000000 -1.000000 0.000000
vn 0.000000 -1.000000 0.000000
vn 0.000000 -1.000000 0.000000
vn 0.000000 -1.000000 0.000000
vn 1.000000 0.000000 0.000000
vn 1.000000 0.000000 0.000000
vn 1.000000 0.000000 0.000000
vn 1.000000 0.000000 0.000000
vn 0.000000 -1.000000 0.000000
vn 0.000000 -1.000000 0.000000
vn 0.000000 0.000000 -1.000000
vn 0.000000 0.000000 -1.000000
vn 0.000000 1.000000 0.000000
vn 0.000000 1.000000 0.000000
vn 0.000000 1.000000 0.000000
vn 0.000000 1.000000 0.000000
vn 0.000000 0.000000 1.000000
vn 0.000000 0.000000 1.000000
vn 0.000000 0.000000 1.000000
vn 0.000000 0.000000 1.000000
g gizmo
usemtl lambert2SG
f 6/17/1 7/18/2 9/20/3
f 9/20/3 7/18/2 8/19/4
f 10/37/5 11/38/6 13/40/7
f 13/40/7 11/38/6 12/39/8
f 14/41/9 15/42/10 17/44/11
f 17/44/11 15/42/10 16/43/12
f 1/10/13 7/11/14 2/9/15
f 2/9/15 7/11/14 6/12/16
f 1/1/17 4/2/18 7/4/19
f 7/4/19 4/2/18 8/3/20
f 4/13/21 3/14/22 8/16/23
f 8/16/23 3/14/22 9/15/24
f 3/5/25 2/6/26 9/8/27
f 9/8/27 2/6/26 6/7/28
f 3/29/29 4/30/30 10/32/31
f 10/32/31 4/30/30 11/31/32
f 1/22/17 12/23/33 4/21/18
f 4/21/18 12/23/33 11/24/34
f 1/33/35 5/34/36 12/36/37
f 12/36/37 5/34/36 13/35/38
f 5/25/39 3/26/40 13/28/41
f 13/28/41 3/26/40 10/27/42
f 1/46/35 15/47/43 5/45/36
f 5/45/36 15/47/43 14/48/44
f 1/53/13 2/54/15 15/56/45
f 15/56/45 2/54/15 16/55/46
f 2/49/47 3/50/48 16/52/49
f 16/52/49 3/50/48 17/51/50
f 3/57/51 5/58/52 17/60/53
f 17/60/53 5/58/52 14/59/54
v -5.603224 1.389158 -0.048341
v -5.625443 1.389158 -0.091950
v -5.660052 1.389158 -0.126558
v -5.703661 1.389158 -0.148778
v -5.752002 1.389158 -0.156435
v -5.800343 1.389158 -0.148778
v -5.843952 1.389158 -0.126558
v -5.878560 1.389158 -0.091950
v -5.900780 1.389158 -0.048341
v -5.908436 1.389158 0.000000
v -5.900780 1.389158 0.048341
v -5.878560 1.389158 0.091950
v -5.843952 1.389158 0.126558
v -5.800343 1.389158 0.148778
v -5.752002 1.389158 0.156434
v -5.703661 1.389158 0.148778
v -5.660052 1.389158 0.126558
v -5.625443 1.389158 0.091950
v -5.603224 1.389158 0.048341
v -5.595567 1.389158 0.000000
v -5.458109 1.425789 -0.095492
v -5.502002 1.425789 -0.181636
v -5.570366 1.425789 -0.250000
v -5.656510 1.425789 -0.293893
v -5.752002 1.425789 -0.309017
v -5.847493 1.425789 -0.293893
v -5.933638 1.425789 -0.250000
v -6.002002 1.425789 -0.181636
v -6.045895 1.425789 -0.095492
v -6.061019 1.425789 0.000000
v -6.045895 1.425789 0.095492
v -6.002002 1.425789 0.181636
v -5.933638 1.425789 0.250000
v -5.847493 1.425789 0.293893
v -5.752002 1.425789 0.309017
v -5.656510 1.425789 0.293893
v -5.570366 1.425789 0.250000
v -5.502002 1.425789 0.181636
v -5.458109 1.425789 0.095492
v -5.442985 1.425789 0.000000
v -5.320231 1.485839 -0.140291
v -5.384716 1.485839 -0.266849
v -5.485153 1.485839 -0.367286
v -5.611711 1.485839 -0.431771
v -5.752002 1.485839 -0.453991
v -5.892292 1.485839 -0.431771
v -6.018851 1.485839 -0.367286
v -6.119288 1.485839 -0.266849
v -6.183773 1.485839 -0.140291
v -6.205992 1.485839 0.000000
v -6.183773 1.485839 0.140291
v -6.119288 1.485839 0.266849
v -6.018851 1.485839 0.367286
v -5.892292 1.485839 0.431771
v -5.752002 1.485839 0.453991
v -5.611711 1.485839 0.431771
v -5.485153 1.485839 0.367286
v -5.384716 1.485839 0.266849
v -5.320231 1.485839 0.140291
v -5.298011 1.485839 0.000000
v -5.192985 1.567829 -0.181636
v -5.276473 1.567829 -0.345492
v -5.406510 1.567829 -0.475529
v -5.570366 1.567829 -0.559017
v -5.752002 1.567829 -0.587786
v -5.933638 1.567829 -0.559017
v -6.097493 1.567829 -0.475528
v -6.227530 1.567829 -0.345492
v -6.311019 1.567829 -0.181636
v -6.339787 1.567829 0.000000
v -6.311019 1.567829 0.181636
v -6.227530 1.567829 0.345492
v -6.097493 1.567829 0.475528
v -5.933638 1.567829 0.559017
v -5.752002 1.567829 0.587785
v -5.570366 1.567829 0.559017
v -5.406510 1.567829 0.475528
v -5.276474 1.567829 0.345492
v -5.192985 1.567829 0.181636
v -5.164217 1.567829 0.000000
v -5.079503 1.669739 -0.218508
v -5.179940 1.669739 -0.415627
v -5.336375 1.669739 -0.572062
v -5.533494 1.669739 -0.672499
v -5.752002 1.669739 -0.707107
v -5.970510 1.669739 -0.672499
v -6.167629 1.669739 -0.572062
v -6.324063 1.669739 -0.415627
v -6.424500 1.669739 -0.218508
v -6.459109 1.669739 0.000000
v -6.424500 1.669739 0.218508
v -6.324063 1.669739 0.415627
v -6.167629 1.669739 0.572061
v -5.970510 1.669739 0.672499
v -5.752002 1.669739 0.707107
v -5.533494 1.669739 0.672499
v -5.336375 1.669739 0.572061
v -5.179940 1.669739 0.415627
v -5.079503 1.669739 0.218508
v -5.044895 1.669739 0.000000
v -4.982580 1.789061 -0.250000
v -5.097493 1.789061 -0.475529
v -5.276473 1.789061 -0.654509
v -5.502002 1.789061 -0.769421
v -5.752002 1.789061 -0.809017
v -6.002002 1.789061 -0.769421
v -6.227530 1.789061 -0.654509
v -6.406510 1.789061 -0.475528
v -6.521423 1.789061 -0.250000
v -6.561019 1.789061 0.000000
v -6.521423 1.789061 0.250000
v -6.406510 1.789061 0.475528
v -6.227530 1.789061 0.654509
v -6.002002 1.789061 0.769421
v -5.752002 1.789061 0.809017
v -5.502002 1.789061 0.769421
v -5.276474 1.789061 0.654509
v -5.097493 1.789061 0.475528
v -4.982581 1.789061 0.250000
v -4.942985 1.789061 0.000000
v -4.904603 1.922855 -0.275336
v -5.031162 1.922855 -0.523721
v -5.228281 1.922855 -0.720840
v -5.476665 1.922855 -0.847398
v -5.752002 1.922855 -0.891007
v -6.027338 1.922855 -0.847398
v -6.275723 1.922855 -0.720840
v -6.472841 1.922855 -0.523721
v -6.599400 1.922855 -0.275336
v -6.643009 1.922855 0.000000
v -6.599400 1.922855 0.275336
v -6.472841 1.922855 0.523721
v -6.275723 1.922855 0.720840
v -6.027338 1.922855 0.847398
v -5.752002 1.922855 0.891007
v -5.476665 1.922855 0.847398
v -5.228281 1.922855 0.720840
v -5.031162 1.922855 0.523721
v -4.904604 1.922855 0.275336
v -4.860995 1.922855 0.000000
v -4.847493 2.067829 -0.293893
v -4.982580 2.067829 -0.559017
v -5.192985 2.067829 -0.769421
v -5.458109 2.067829 -0.904509
v -5.752002 2.067829 -0.951057
v -6.045895 2.067829 -0.904509
v -6.311019 2.067829 -0.769421
v -6.521423 2.067829 -0.559017
v -6.656510 2.067829 -0.293893
v -6.703059 2.067829 0.000000
v -6.656510 2.067829 0.293893
v -6.521423 2.067829 0.559017
v -6.311019 2.067829 0.769421
v -6.045895 2.067829 0.904509
v -5.752002 2.067829 0.951057
v -5.458109 2.067829 0.904509
v -5.192985 2.067829 0.769421
v -4.982581 2.067829 0.559017
v -4.847493 2.067829 0.293893
v -4.800945 2.067829 0.000000
v -4.812654 2.220412 -0.305213
v -4.952945 2.220412 -0.580549
v -5.171453 2.220412 -0.799057
v -5.446789 2.220412 -0.939348
v -5.752002 2.220412 -0.987689
v -6.057214 2.220412 -0.939348
v -6.332551 2.220412 -0.799057
v -6.551059 2.220412 -0.580549
v -6.691350 2.220412 -0.305213
v -6.739690 2.220412 0.000000
v -6.691350 2.220412 0.305213
v -6.551059 2.220412 0.580549
v -6.332551 2.220412 0.799057
v -6.057214 2.220412 0.939348
v -5.752002 2.220412 0.987688
v -5.446789 2.220412 0.939348
v -5.171453 2.220412 0.799057
v -4.952945 2.220412 0.580549
v -4.812654 2.220412 0.305212
v -4.764313 2.220412 0.000000
v -4.800945 2.376846 -0.309017
v -4.942984 2.376846 -0.587786
v -5.164216 2.376846 -0.809017
v -5.442985 2.376846 -0.951057
v -5.752002 2.376846 -1.000000
v -6.061019 2.376846 -0.951057
v -6.339787 2.376846 -0.809017
v -6.561019 2.376846 -0.587785
v -6.703059 2.376846 -0.309017
v -6.752002 2.376846 0.000000
v -6.703059 2.376846 0.309017
v -6.561019 2.376846 0.587785
v -6.339787 2.376846 0.809017
v -6.061019 2.376846 0.951057
v -5.752002 2.376846 1.000000
v -5.442985 2.376846 0.951057
v -5.164217 2.376846 0.809017
v -4.942985 2.376846 0.587785
v -4.800945 2.376846 0.309017
v -4.752002 2.376846 0.000000
v -4.812654 2.533280 -0.305213
v -4.952945 2.533280 -0.580549
v -5.171453 2.533280 -0.799057
v -5.446789 2.533280 -0.939348
v -5.752002 2.533280 -0.987689
v -6.057214 2.533280 -0.939348
v -6.332551 2.533280 -0.799057
v -6.551059 2.533280 -0.580549
v -6.691350 2.533280 -0.305213
v -6.739690 2.533280 0.000000
v -6.691350 2.533280 0.305213
v -6.551059 2.533280 0.580549
v -6.332551 2.533280 0.799057
v -6.057214 2.533280 0.939348
v -5.752002 2.533280 0.987688
v -5.446789 2.533280 0.939348
v -5.171453 2.533280 0.799057
v -4.952945 2.533280 0.580549
v -4.812654 2.533280 0.305212
v -4.764313 2.533280 0.000000
v -4.847493 2.685863 -0.293893
v -4.982580 2.685863 -0.559017
v -5.192985 2.685863 -0.769421
v -5.458109 2.685863 -0.904509
v -5.752002 2.685863 -0.951057
v -6.045895 2.685863 -0.904509
v -6.311019 2.685863 -0.769421
v -6.521423 2.685863 -0.559017
v -6.656510 2.685863 -0.293893
v -6.703059 2.685863 0.000000
v -6.656510 2.685863 0.293893
v -6.521423 2.685863 0.559017
v -6.311019 2.685863 0.769421
v -6.045895 2.685863 0.904509
v -5.752002 2.685863 0.951057
v -5.458109 2.685863 0.904509
v -5.192985 2.685863 0.769421
v -4.982581 2.685863 0.559017
v -4.847493 2.685863 0.293893
v -4.800945 2.685863 0.000000
v -4.904603 2.830836 -0.275336
v -5.031162 2.830836 -0.523721
v -5.228281 2.830836 -0.720840
v -5.476665 2.830836 -0.847398
v -5.752002 2.830836 -0.891007
v -6.027338 2.830836 -0.847398
v -6.275723 2.830836 -0.720840
v -6.472841 2.830836 -0.523721
v -6.599400 2.830836 -0.275336
v -6.643009 2.830836 0.000000
v -6.599400 2.830836 0.275336
v -6.472841 2.830836 0.523721
v -6.275723 2.830836 0.720840
v -6.027338 2.830836 0.847398
v -5.752002 2.830836 0.891007
v -5.476665 2.830836 0.847398
v -5.228281 2.830836 0.720840
v -5.031162 2.830836 0.523721
v -4.904604 2.830836 0.275336
v -4.860995 2.830836 0.000000
v -4.982580 2.964631 -0.250000
v -5.097493 2.964631 -0.475529
v -5.276473 2.964631 -0.654509
v -5.502002 2.964631 -0.769421
v -5.752002 2.964631 -0.809017
v -6.002002 2.964631 -0.769421
v -6.227530 2.964631 -0.654509
v -6.406510 2.964631 -0.475528
v -6.521423 2.964631 -0.250000
v -6.561019 2.964631 0.000000
v -6.521423 2.964631 0.250000
v -6.406510 2.964631 0.475528
v -6.227530 2.964631 0.654509
v -6.002002 2.964631 0.769421
v -5.752002 2.964631 0.809017
v -5.502002 2.964631 0.769421
v -5.276474 2.964631 0.654509
v -5.097493 2.964631 0.475528
v -4.982581 2.964631 0.250000
v -4.942985 2.964631 0.000000
v -5.079503 3.083953 -0.218508
v -5.179940 3.083953 -0.415627
v -5.336375 3.083953 -0.572062
v -5.533494 3.083953 -0.672499
v -5.752002 3.083953 -0.707107
v -5.970510 3.083953 -0.672499
v -6.167629 3.083953 -0.572062
v -6.324063 3.083953 -0.415627
v -6.424500 3.083953 -0.218508
v -6.459109 3.083953 0.000000
v -6.424500 3.083953 0.218508
v -6.324063 3.083953 0.415627
v -6.167629 3.083953 0.572061
v -5.970510 3.083953 0.672499
v -5.752002 3.083953 0.707107
v -5.533494 3.083953 0.672499
v -5.336375 3.083953 0.572061
v -5.179940 3.083953 0.415627
v -5.079503 3.083953 0.218508
v -5.044895 3.083953 0.000000
v -5.192985 3.185863 -0.181636
v -5.276473 3.185863 -0.345492
v -5.406510 3.185863 -0.475529
v -5.570366 3.185863 -0.559017
v -5.752002 3.185863 -0.587786
v -5.933638 3.185863 -0.559017
v -6.097493 3.185863 -0.475528
v -6.227530 3.185863 -0.345492
v -6.311019 3.185863 -0.181636
v -6.339787 3.185863 0.000000
v -6.311019 3.185863 0.181636
v -6.227530 3.185863 0.345492
v -6.097493 3.185863 0.475528
v -5.933638 3.185863 0.559017
v -5.752002 3.185863 0.587785
v -5.570366 3.185863 0.559017
v -5.406510 3.185863 0.475528
v -5.276474 3.185863 0.345492
v -5.192985 3.185863 0.181636
v -5.164217 3.185863 0.000000
v -5.320231 3.267852 -0.140291
v -5.384716 3.267852 -0.266849
v -5.485153 3.267852 -0.367286
v -5.611711 3.267852 -0.431771
v -5.752002 3.267852 -0.453991
v -5.892292 3.267852 -0.431771
v -6.018851 3.267852 -0.367286
v -6.119288 3.267852 -0.266849
v -6.183773 3.267852 -0.140291
v -6.205992 3.267852 0.000000
v -6.183773 3.267852 0.140291
v -6.119288 3.267852 0.266849
v -6.018851 3.267852 0.367286
v -5.892292 3.267852 0.431771
v -5.752002 3.267852 0.453991
v -5.611711 3.267852 0.431771
v -5.485153 3.267852 0.367286
v -5.384716 3.267852 0.266849
v -5.320231 3.267852 0.140291
v -5.298011 3.267852 0.000000
v -5.458109 3.327902 -0.095492
v -5.502002 3.327902 -0.181636
v -5.570366 3.327902 -0.250000
v -5.656510 3.327902 -0.293893
v -5.752002 3.327902 -0.309017
v -5.847493 3.327902 -0.293893
v -5.933638 3.327902 -0.250000
v -6.002002 3.327902 -0.181636
v -6.045895 3.327902 -0.095492
v -6.061019 3.327902 0.000000
v -6.045895 3.327902 0.095492
v -6.002002 3.327902 0.181636
v -5.933638 3.327902 0.250000
v -5.847493 3.327902 0.293893
v -5.752002 3.327902 0.309017
v -5.656510 3.327902 0.293893
v -5.570366 3.327902 0.250000
v -5.502002 3.327902 0.181636
v -5.458109 3.327902 0.095492
v -5.442985 3.327902 0.000000
v -5.603224 3.364534 -0.048341
v -5.625443 3.364534 -0.091950
v -5.660052 3.364534 -0.126558
v -5.703661 3.364534 -0.148778
v -5.752002 3.364534 -0.156435
v -5.800343 3.364534 -0.148778
v -5.843952 3.364534 -0.126558
v -5.878560 3.364534 -0.091950
v -5.900780 3.364534 -0.048341
v -5.908436 3.364534 0.000000
v -5.900780 3.364534 0.048341
v -5.878560 3.364534 0.091950
v -5.843952 3.364534 0.126558
v -5.800343 3.364534 0.148778
v -5.752002 3.364534 0.156434
v -5.703661 3.364534 0.148778
v -5.660052 3.364534 0.126558
v -5.625443 3.364534 0.091950
v -5.603224 3.364534 0.048341
v -5.595567 3.364534 0.000000
v -5.752002 1.376846 0.000000
v -5.752002 3.376846 0.000000
vt 0.000000 0.050000
vt 0.050000 0.050000
vt 0.100000 0.050000
vt 0.150000 0.050000
vt 0.200000 0.050000
vt 0.250000 0.050000
vt 0.300000 0.050000
vt 0.350000 0.050000
vt 0.400000 0.050000
vt 0.450000 0.050000
vt 0.500000 0.050000
vt 0.550000 0.050000
vt 0.600000 0.050000
vt 0.650000 0.050000
vt 0.700000 0.050000
vt 0.750000 0.050000
vt 0.800000 0.050000
vt 0.850000 0.050000
vt 0.900000 0.050000
vt 0.950000 0.050000
vt 1.000000 0.050000
vt 0.000000 0.100000
vt 0.050000 0.100000
vt 0.100000 0.100000
vt 0.150000 0.100000
vt 0.200000 0.100000
vt 0.250000 0.100000
vt 0.300000 0.100000
vt 0.350000 0.100000
vt 0.400000 0.100000
vt 0.450000 0.100000
vt 0.500000 0.100000
vt 0.550000 0.100000
vt 0.600000 0.100000
vt 0.650000 0.100000
vt 0.700000 0.100000
vt 0.750000 0.100000
vt 0.800000 0.100000
vt 0.850000 0.100000
vt 0.900000 0.100000
vt 0.950000 0.100000
vt 1.000000 0.100000
vt 0.000000 0.150000
vt 0.050000 0.150000
vt 0.100000 0.150000
vt 0.150000 0.150000
vt 0.200000 0.150000
vt 0.250000 0.150000
vt 0.300000 0.150000
vt 0.350000 0.150000
vt 0.400000 0.150000
vt 0.450000 0.150000
vt 0.500000 0.150000
vt 0.550000 0.150000
vt 0.600000 0.150000
vt 0.650000 0.150000
vt 0.700000 0.150000
vt 0.750000 0.150000
vt 0.800000 0.150000
vt 0.850000 0.150000
vt 0.900000 0.150000
vt 0.950000 0.150000
vt 1.000000 0.150000
vt 0.000000 0.200000
vt 0.050000 0.200000
vt 0.100000 0.200000
vt 0.150000 0.200000
vt 0.200000 0.200000
vt 0.250000 0.200000
vt 0.300000 0.200000
vt 0.350000 0.200000
vt 0.400000 0.200000
vt 0.450000 0.200000
vt 0.500000 0.200000
vt 0.550000 0.200000
vt 0.600000 0.200000
vt 0.650000 0.200000
vt 0.700000 0.200000
vt 0.750000 0.200000
vt 0.800000 0.200000
vt 0.850000 0.200000
vt 0.900000 0.200000
vt 0.950000 0.200000
vt 1.000000 0.200000
vt 0.000000 0.250000
vt 0.050000 0.250000
vt 0.100000 0.250000
vt 0.150000 0.250000
vt 0.200000 0.250000
vt 0.250000 0.250000
vt 0.300000 0.250000
vt 0.350000 0.250000
vt 0.400000 0.250000
vt 0.450000 0.250000
vt 0.500000 0.250000
vt 0.550000 0.250000
vt 0.600000 0.250000
vt 0.650000 0.250000
vt 0.700000 0.250000
vt 0.750000 0.250000
vt 0.800000 0.250000
vt 0.850000 0.250000
vt 0.900000 0.250000
vt 0.950000 0.250000
vt 1.000000 0.250000
vt 0.000000 0.300000
vt 0.050000 0.300000
vt 0.100000 0.300000
vt 0.150000 0.300000
vt 0.200000 0.300000
vt 0.250000 0.300000
vt 0.300000 0.300000
vt 0.350000 0.300000
vt 0.400000 0.300000
vt 0.450000 0.300000
vt 0.500000 0.300000
vt 0.550000 0.300000
vt 0.600000 0.300000
vt 0.650000 0.300000
vt 0.700000 0.300000
vt 0.750000 0.300000
vt 0.800000 0.300000
vt 0.850000 0.300000
vt 0.900000 0.300000
vt 0.950000 0.300000
vt 1.000000 0.300000
vt 0.000000 0.350000
vt 0.050000 0.350000
vt 0.100000 0.350000
vt 0.150000 0.350000
vt 0.200000 0.350000
vt 0.250000 0.350000
vt 0.300000 0.350000
vt 0.350000 0.350000
vt 0.400000 0.350000
vt 0.450000 0.350000
vt 0.500000 0.350000
vt 0.550000 0.350000
vt 0.600000 0.350000
vt 0.650000 0.350000
vt 0.700000 0.350000
vt 0.750000 0.350000
vt 0.800000 0.350000
vt 0.850000 0.350000
vt 0.900000 0.350000
vt 0.950000 0.350000
vt 1.000000 0.350000
vt 0.000000 0.400000
vt 0.050000 0.400000
vt 0.100000 0.400000
vt 0.150000 0.400000
vt 0.200000 0.400000
vt 0.250000 0.400000
vt 0.300000 0.400000
vt 0.350000 0.400000
vt 0.400000 0.400000
vt 0.450000 0.400000
vt 0.500000 0.400000
vt 0.550000 0.400000
vt 0.600000 0.400000
vt 0.650000 0.400000
vt 0.700000 0.400000
vt 0.750000 0.400000
vt 0.800000 0.400000
vt 0.850000 0.400000
vt 0.900000 0.400000
vt 0.950000 0.400000
vt 1.000000 0.400000
vt 0.000000 0.450000
vt 0.050000 0.450000
vt 0.100000 0.450000
vt 0.150000 0.450000
vt 0.200000 0.450000
vt 0.250000 0.450000
vt 0.300000 0.450000
vt 0.350000 0.450000
vt 0.400000 0.450000
vt 0.450000 0.450000
vt 0.500000 0.450000
vt 0.550000 0.450000
vt 0.600000 0.450000
vt 0.650000 0.450000
vt 0.700000 0.450000
vt 0.750000 0.450000
vt 0.800000 0.450000
vt 0.850000 0.450000
vt 0.900000 0.450000
vt 0.950000 0.450000
vt 1.000000 0.450000
vt 0.000000 0.500000
vt 0.050000 0.500000
vt 0.100000 0.500000
vt 0.150000 0.500000
vt 0.200000 0.500000
vt 0.250000 0.500000
vt 0.300000 0.500000
vt 0.350000 0.500000
vt 0.400000 0.500000
vt 0.450000 0.500000
vt 0.500000 0.500000
vt 0.550000 0.500000
vt 0.600000 0.500000
vt 0.650000 0.500000
vt 0.700000 0.500000
vt 0.750000 0.500000
vt 0.800000 0.500000
vt 0.850000 0.500000
vt 0.900000 0.500000
vt 0.950000 0.500000
vt 1.000000 0.500000
vt 0.000000 0.550000
vt 0.050000 0.550000
vt 0.100000 0.550000
vt 0.150000 0.550000
vt 0.200000 0.550000
vt 0.250000 0.550000
vt 0.300000 0.550000
vt 0.350000 0.550000
vt 0.400000 0.550000
vt 0.450000 0.550000
vt 0.500000 0.550000
vt 0.550000 0.550000
vt 0.600000 0.550000
vt 0.650000 0.550000
vt 0.700000 0.550000
vt 0.750000 0.550000
vt 0.800000 0.550000
vt 0.850000 0.550000
vt 0.900000 0.550000
vt 0.950000 0.550000
vt 1.000000 0.550000
vt 0.000000 0.600000
vt 0.050000 0.600000
vt 0.100000 0.600000
vt 0.150000 0.600000
vt 0.200000 0.600000
vt 0.250000 0.600000
vt 0.300000 0.600000
vt 0.350000 0.600000
vt 0.400000 0.600000
vt 0.450000 0.600000
vt 0.500000 0.600000
vt 0.550000 0.600000
vt 0.600000 0.600000
vt 0.650000 0.600000
vt 0.700000 0.600000
vt 0.750000 0.600000
vt 0.800000 0.600000
vt 0.850000 0.600000
vt 0.900000 0.600000
vt 0.950000 0.600000
vt 1.000000 0.600000
vt 0.000000 0.650000
vt 0.050000 0.650000
vt 0.100000 0.650000
vt 0.150000 0.650000
vt 0.200000 0.650000
vt 0.250000 0.650000
vt 0.300000 0.650000
vt 0.350000 0.650000
vt 0.400000 0.650000
vt 0.450000 0.650000
vt 0.500000 0.650000
vt 0.550000 0.650000
vt 0.600000 0.650000
vt 0.650000 0.650000
vt 0.700000 0.650000
vt 0.750000 0.650000
vt 0.800000 0.650000
vt 0.850000 0.650000
vt 0.900000 0.650000
vt 0.950000 0.650000
vt 1.000000 0.650000
vt 0.000000 0.700000
vt 0.050000 0.700000
vt 0.100000 0.700000
vt 0.150000 0.700000
vt 0.200000 0.700000
vt 0.250000 0.700000
vt 0.300000 0.700000
vt 0.350000 0.700000
vt 0.400000 0.700000
vt 0.450000 0.700000
vt 0.500000 0.700000
vt 0.550000 0.700000
vt 0.600000 0.700000
vt 0.650000 0.700000
vt 0.700000 0.700000
vt 0.750000 0.700000
vt 0.800000 0.700000
vt 0.850000 0.700000
vt 0.900000 0.700000
vt 0.950000 0.700000
vt 1.000000 0.700000
vt 0.000000 0.750000
vt 0.050000 0.750000
vt 0.100000 0.750000
vt 0.150000 0.750000
vt 0.200000 0.750000
vt 0.250000 0.750000
vt 0.300000 0.750000
vt 0.350000 0.750000
vt 0.400000 0.750000
vt 0.450000 0.750000
vt 0.500000 0.750000
vt 0.550000 0.750000
vt 0.600000 0.750000
vt 0.650000 0.750000
vt 0.700000 0.750000
vt 0.750000 0.750000
vt 0.800000 0.750000
vt 0.850000 0.750000
vt 0.900000 0.750000
vt 0.950000 0.750000
vt 1.000000 0.750000
vt 0.000000 0.800000
vt 0.050000 0.800000
vt 0.100000 0.800000
vt 0.150000 0.800000
vt 0.200000 0.800000
vt 0.250000 0.800000
vt 0.300000 0.800000
vt 0.350000 0.800000
vt 0.400000 0.800000
vt 0.450000 0.800000
vt 0.500000 0.800000
vt 0.550000 0.800000
vt 0.600000 0.800000
vt 0.650000 0.800000
vt 0.700000 0.800000
vt 0.750000 0.800000
vt 0.800000 0.800000
vt 0.850000 0.800000
vt 0.900000 0.800000
vt 0.950000 0.800000
vt 1.000000 0.800000
vt 0.000000 0.850000
vt 0.050000 0.850000
vt 0.100000 0.850000
vt 0.150000 0.850000
vt 0.200000 0.850000
vt 0.250000 0.850000
vt 0.300000 0.850000
vt 0.350000 0.850000
vt 0.400000 0.850000
vt 0.450000 0.850000
vt 0.500000 0.850000
vt 0.550000 0.850000
vt 0.600000 0.850000
vt 0.650000 0.850000
vt 0.700000 0.850000
vt 0.750000 0.850000
vt 0.800000 0.850000
vt 0.850000 0.850000
vt 0.900000 0.850000
vt 0.950000 0.850000
vt 1.000000 0.850000
vt 0.000000 0.900000
vt 0.050000 0.900000
vt 0.100000 0.900000
vt 0.150000 0.900000
vt 0.200000 0.900000
vt 0.250000 0.900000
vt 0.300000 0.900000
vt 0.350000 0.900000
vt 0.400000 0.900000
vt 0.450000 0.900000
vt 0.500000 0.900000
vt 0.550000 0.900000
vt 0.600000 0.900000
vt 0.650000 0.900000
vt 0.700000 0.900000
vt 0.750000 0.900000
vt 0.800000 0.900000
vt 0.850000 0.900000
vt 0.900000 0.900000
vt 0.950000 0.900000
vt 1.000000 0.900000
vt 0.000000 0.950000
vt 0.050000 0.950000
vt 0.100000 0.950000
vt 0.150000 0.950000
vt 0.200000 0.950000
vt 0.250000 0.950000
vt 0.300000 0.950000
vt 0.350000 0.950000
vt 0.400000 0.950000
vt 0.450000 0.950000
vt 0.500000 0.950000
vt 0.550000 0.950000
vt 0.600000 0.950000
vt 0.650000 0.950000
vt 0.700000 0.950000
vt 0.750000 0.950000
vt 0.800000 0.950000
vt 0.850000 0.950000
vt 0.900000 0.950000
vt 0.950000 0.950000
vt 1.000000 0.950000
vt 0.025000 0.000000
vt 0.075000 0.000000
vt 0.125000 0.000000
vt 0.175000 0.000000
vt 0.225000 0.000000
vt 0.275000 0.000000
vt 0.325000 0.000000
vt 0.375000 0.000000
vt 0.425000 0.000000
vt 0.475000 0.000000
vt 0.525000 0.000000
vt 0.575000 0.000000
vt 0.625000 0.000000
vt 0.675000 0.000000
vt 0.725000 0.000000
vt 0.775000 0.000000
vt 0.825000 0.000000
vt 0.875000 0.000000
vt 0.925000 0.000000
vt 0.975000 0.000000
vt 0.025000 1.000000
vt 0.075000 1.000000
vt 0.125000 1.000000
vt 0.175000 1.000000
vt 0.225000 1.000000
vt 0.275000 1.000000
vt 0.325000 1.000000
vt 0.375000 1.000000
vt 0.425000 1.000000
vt 0.475000 1.000000
vt 0.525000 1.000000
vt 0.575000 1.000000
vt 0.625000 1.000000
vt 0.675000 1.000000
vt 0.725000 1.000000
vt 0.775000 1.000000
vt 0.825000 1.000000
vt 0.875000 1.000000
vt 0.925000 1.000000
vt 0.975000 1.000000
vn 0.162627 -0.985442 -0.049557
vn 0.139354 -0.985442 -0.097387
vn 0.307374 -0.946801 -0.095333
vn 0.262871 -0.946801 -0.185650
vn 0.102439 -0.985443 -0.135681
vn 0.192636 -0.946801 -0.257796
vn 0.055497 -0.985443 -0.160695
vn 0.103544 -0.946801 -0.304706
vn 0.003123 -0.985442 -0.169981
vn 0.004317 -0.946801 -0.321790
vn -0.049557 -0.985442 -0.162627
vn -0.095333 -0.946801 -0.307375
vn -0.097386 -0.985442 -0.139354
vn -0.185650 -0.946802 -0.262870
vn -0.135682 -0.985442 -0.102439
vn -0.257795 -0.946802 -0.192635
vn -0.160697 -0.985442 -0.055497
vn -0.304705 -0.946802 -0.103544
vn -0.169981 -0.985442 -0.003123
vn -0.321790 -0.946801 -0.004316
vn -0.162626 -0.985442 0.049557
vn -0.307374 -0.946801 0.095333
vn -0.139353 -0.985442 0.097386
vn -0.262871 -0.946802 0.185650
vn -0.102438 -0.985443 0.135681
vn -0.192636 -0.946801 0.257796
vn -0.055497 -0.985443 0.160696
vn -0.103544 -0.946801 0.304707
vn -0.003123 -0.985442 0.169981
vn -0.004317 -0.946801 0.321790
vn 0.049557 -0.985442 0.162628
vn 0.095333 -0.946801 0.307374
vn 0.097386 -0.985442 0.139355
vn 0.185649 -0.946802 0.262869
vn 0.135682 -0.985443 0.102439
vn 0.257796 -0.946801 0.192636
vn 0.160696 -0.985443 0.055497
vn 0.304707 -0.946801 0.103544
vn 0.169981 -0.985442 0.003123
vn 0.321790 -0.946801 0.004317
vn 0.443772 -0.885333 -0.138753
vn 0.379175 -0.885332 -0.269096
vn 0.277462 -0.885332 -0.373097
vn 0.148588 -0.885333 -0.440577
vn 0.005170 -0.885332 -0.464930
vn -0.138754 -0.885332 -0.443773
vn -0.269095 -0.885333 -0.379175
vn -0.373097 -0.885333 -0.277462
vn -0.440576 -0.885333 -0.148588
vn -0.464930 -0.885332 -0.005170
vn -0.443773 -0.885332 0.138753
vn -0.379175 -0.885333 0.269096
vn -0.277462 -0.885332 0.373098
vn -0.148589 -0.885332 0.440577
vn -0.005170 -0.885333 0.464929
vn 0.138754 -0.885332 0.443772
vn 0.269096 -0.885332 0.379175
vn 0.373098 -0.885332 0.277463
vn 0.440576 -0.885333 0.148588
vn 0.464930 -0.885333 0.005170
vn 0.569006 -0.802583 -0.179145
vn 0.485798 -0.802582 -0.346211
vn 0.355036 -0.802583 -0.479385
vn 0.189521 -0.802584 -0.565633
vn 0.005454 -0.802583 -0.596515
vn -0.179146 -0.802583 -0.569006
vn -0.346210 -0.802584 -0.485797
vn -0.479386 -0.802582 -0.355036
vn -0.565634 -0.802584 -0.189520
vn -0.596515 -0.802583 -0.005454
vn -0.569006 -0.802583 0.179147
vn -0.485797 -0.802583 0.346211
vn -0.355036 -0.802583 0.479385
vn -0.189521 -0.802584 0.565634
vn -0.005454 -0.802583 0.596516
vn 0.179147 -0.802582 0.569006
vn 0.346211 -0.802582 0.485798
vn 0.479386 -0.802583 0.355036
vn 0.565635 -0.802583 0.189520
vn 0.596516 -0.802583 0.005454
vn 0.680269 -0.700559 -0.215525
vn 0.580373 -0.700558 -0.415193
vn 0.423666 -0.700559 -0.574216
vn 0.225488 -0.700558 -0.677033
vn 0.005237 -0.700558 -0.713576
vn -0.215527 -0.700558 -0.680270
vn -0.415192 -0.700560 -0.580372
vn -0.574216 -0.700560 -0.423665
vn -0.677033 -0.700558 -0.225488
vn -0.713576 -0.700558 -0.005237
vn -0.680270 -0.700557 0.215527
vn -0.580374 -0.700558 0.415193
vn -0.423667 -0.700558 0.574217
vn -0.225488 -0.700559 0.677032
vn -0.005237 -0.700558 0.713576
vn 0.215526 -0.700558 0.680270
vn 0.415192 -0.700559 0.580373
vn 0.574216 -0.700559 0.423666
vn 0.677033 -0.700558 0.225488
vn 0.713576 -0.700559 0.005237
vn 0.774994 -0.581723 -0.246947
vn 0.660752 -0.581723 -0.474347
vn 0.481831 -0.581723 -0.655315
vn 0.255745 -0.581722 -0.772136
vn 0.004625 -0.581722 -0.813375
vn -0.246948 -0.581721 -0.774995
vn -0.474347 -0.581724 -0.660752
vn -0.655315 -0.581723 -0.481831
vn -0.772137 -0.581720 -0.255746
vn -0.813374 -0.581722 -0.004625
vn -0.774994 -0.581722 0.246948
vn -0.660753 -0.581721 0.474348
vn -0.481831 -0.581722 0.655315
vn -0.255745 -0.581723 0.772135
vn -0.004625 -0.581722 0.813374
vn 0.246948 -0.581720 0.774996
vn 0.474347 -0.581723 0.660752
vn 0.655315 -0.581722 0.481831
vn 0.772137 -0.581721 0.255746
vn 0.813375 -0.581721 0.004626
vn 0.850970 -0.448937 -0.272589
vn 0.725085 -0.448938 -0.522213
vn 0.528225 -0.448937 -0.720718
vn 0.279658 -0.448937 -0.848674
vn 0.003716 -0.448937 -0.893556
vn -0.272591 -0.448936 -0.850971
vn -0.522213 -0.448939 -0.725085
vn -0.720718 -0.448937 -0.528225
vn -0.848675 -0.448934 -0.279658
vn -0.893556 -0.448937 -0.003716
vn -0.850970 -0.448938 0.272590
vn -0.725086 -0.448937 0.522213
vn -0.528225 -0.448937 0.720717
vn -0.279657 -0.448937 0.848674
vn -0.003716 -0.448937 0.893556
vn 0.272590 -0.448937 0.850970
vn 0.522213 -0.448938 0.725085
vn 0.720717 -0.448939 0.528224
vn 0.848675 -0.448936 0.279658
vn 0.893557 -0.448935 0.003716
vn 0.906418 -0.305398 -0.291786
vn 0.771886 -0.305398 -0.557605
vn 0.561799 -0.305397 -0.768840
vn 0.296718 -0.305397 -0.904816
vn 0.002592 -0.305397 -0.952222
vn -0.291788 -0.305396 -0.906418
vn -0.557605 -0.305399 -0.771886
vn -0.768840 -0.305397 -0.561799
vn -0.904816 -0.305395 -0.296718
vn -0.952222 -0.305395 -0.002592
vn -0.906417 -0.305398 0.291787
vn -0.771887 -0.305398 0.557604
vn -0.561799 -0.305396 0.768840
vn -0.296718 -0.305397 0.904816
vn -0.002592 -0.305397 0.952222
vn 0.291788 -0.305397 0.906418
vn 0.557605 -0.305398 0.771887
vn 0.768840 -0.305397 0.561799
vn 0.904816 -0.305395 0.296718
vn 0.952222 -0.305396 0.002593
vn 0.940040 -0.154548 -0.304038
vn 0.800078 -0.154546 -0.579647
vn 0.581799 -0.154549 -0.798514
vn 0.306569 -0.154547 -0.939218
vn 0.001330 -0.154547 -0.987985
vn -0.304039 -0.154547 -0.940040
vn -0.579646 -0.154549 -0.800078
vn -0.798514 -0.154548 -0.581799
vn -0.939218 -0.154550 -0.306569
vn -0.987984 -0.154548 -0.001330
vn -0.940040 -0.154549 0.304038
vn -0.800078 -0.154547 0.579647
vn -0.581798 -0.154547 0.798515
vn -0.306569 -0.154548 0.939218
vn -0.001330 -0.154547 0.987985
vn 0.304039 -0.154547 0.940040
vn 0.579647 -0.154548 0.800078
vn 0.798514 -0.154548 0.581799
vn 0.939218 -0.154545 0.306569
vn 0.987984 -0.154548 0.001331
vn 0.951057 -0.000000 -0.309016
vn 0.809017 0.000001 -0.587785
vn 0.587785 -0.000001 -0.809017
vn 0.309017 -0.000000 -0.951057
vn -0.000000 0.000000 -1.000000
vn -0.309017 0.000000 -0.951056
vn -0.587786 0.000001 -0.809017
vn -0.809017 0.000000 -0.587785
vn -0.951057 -0.000001 -0.309016
vn -1.000000 0.000000 0.000000
vn -0.951057 -0.000000 0.309016
vn -0.809017 0.000001 0.587785
vn -0.587785 -0.000000 0.809017
vn -0.309017 0.000000 0.951056
vn -0.000000 0.000000 1.000000
vn 0.309017 -0.000000 0.951057
vn 0.587786 -0.000000 0.809017
vn 0.809017 -0.000000 0.587785
vn 0.951057 0.000001 0.309017
vn 1.000000 0.000000 0.000001
vn 0.939218 0.154548 -0.306568
vn 0.798514 0.154546 -0.581799
vn 0.579647 0.154548 -0.800078
vn 0.304039 0.154547 -0.940040
vn -0.001330 0.154547 -0.987984
vn -0.306569 0.154548 -0.939218
vn -0.581799 0.154547 -0.798515
vn -0.800078 0.154548 -0.579647
vn -0.940040 0.154549 -0.304038
vn -0.987984 0.154549 0.001330
vn -0.939218 0.154549 0.306569
vn -0.798514 0.154549 0.581799
vn -0.579646 0.154548 0.800078
vn -0.304039 0.154548 0.940040
vn 0.001330 0.154547 0.987985
vn 0.306569 0.154547 0.939218
vn 0.581799 0.154547 0.798514
vn 0.800078 0.154547 0.579646
vn 0.940040 0.154547 0.304039
vn 0.987985 0.154547 -0.001329
vn 0.904816 0.305398 -0.296717
vn 0.768841 0.305395 -0.561799
vn 0.557605 0.305398 -0.771887
vn 0.291787 0.305397 -0.906418
vn -0.002592 0.305397 -0.952222
vn -0.296718 0.305397 -0.904815
vn -0.561799 0.305395 -0.768840
vn -0.771887 0.305399 -0.557604
vn -0.906417 0.305398 -0.291788
vn -0.952222 0.305395 0.002592
vn -0.904816 0.305396 0.296718
vn -0.768840 0.305399 0.561798
vn -0.557605 0.305398 0.771886
vn -0.291787 0.305396 0.906418
vn 0.002592 0.305397 0.952222
vn 0.296718 0.305397 0.904815
vn 0.561799 0.305396 0.768840
vn 0.771888 0.305396 0.557604
vn 0.906417 0.305399 0.291787
vn 0.952222 0.305397 -0.002591
vn 0.848674 0.448938 -0.279656
vn 0.720718 0.448935 -0.528226
vn 0.522212 0.448938 -0.725085
vn 0.272590 0.448937 -0.850971
vn -0.003716 0.448937 -0.893556
vn -0.279658 0.448938 -0.848673
vn -0.528225 0.448936 -0.720718
vn -0.725086 0.448937 -0.522212
vn -0.850969 0.448938 -0.272591
vn -0.893556 0.448937 0.003716
vn -0.848675 0.448934 0.279658
vn -0.720717 0.448938 0.528225
vn -0.522213 0.448937 0.725086
vn -0.272590 0.448936 0.850971
vn 0.003716 0.448937 0.893556
vn 0.279658 0.448938 0.848674
vn 0.528225 0.448938 0.720717
vn 0.725086 0.448937 0.522212
vn 0.850970 0.448938 0.272590
vn 0.893556 0.448936 -0.003715
vn 0.772134 0.581725 -0.255744
vn 0.655316 0.581721 -0.481832
vn 0.474347 0.581722 -0.660753
vn 0.246948 0.581721 -0.774995
vn -0.004625 0.581722 -0.813375
vn -0.255746 0.581722 -0.772136
vn -0.481831 0.581722 -0.655316
vn -0.660753 0.581721 -0.474348
vn -0.774994 0.581722 -0.246948
vn -0.813374 0.581722 0.004626
vn -0.772136 0.581722 0.255746
vn -0.655314 0.581723 0.481831
vn -0.474347 0.581723 0.660752
vn -0.246948 0.581721 0.774995
vn 0.004625 0.581722 0.813375
vn 0.255746 0.581722 0.772136
vn 0.481831 0.581722 0.655316
vn 0.660754 0.581720 0.474348
vn 0.774994 0.581722 0.246948
vn 0.813375 0.581722 -0.004625
vn 0.677032 0.700560 -0.225486
vn 0.574216 0.700559 -0.423666
vn 0.415192 0.700559 -0.580373
vn 0.215527 0.700558 -0.680270
vn -0.005237 0.700558 -0.713576
vn -0.225488 0.700559 -0.677032
vn -0.423666 0.700559 -0.574216
vn -0.580373 0.700559 -0.415192
vn -0.680270 0.700557 -0.215527
vn -0.713576 0.700558 0.005237
vn -0.677033 0.700558 0.225488
vn -0.574217 0.700558 0.423667
vn -0.415191 0.700560 0.580372
vn -0.215527 0.700559 0.680269
vn 0.005237 0.700559 0.713576
vn 0.225488 0.700559 0.677032
vn 0.423666 0.700559 0.574216
vn 0.580374 0.700558 0.415192
vn 0.680269 0.700559 0.215526
vn 0.713575 0.700559 -0.005237
vn 0.565635 0.802583 -0.189521
vn 0.479386 0.802582 -0.355036
vn 0.346211 0.802583 -0.485798
vn 0.179146 0.802582 -0.569007
vn -0.005454 0.802583 -0.596516
vn -0.189521 0.802583 -0.565634
vn -0.355036 0.802583 -0.479385
vn -0.485797 0.802582 -0.346212
vn -0.569006 0.802582 -0.179147
vn -0.596515 0.802583 0.005455
vn -0.565634 0.802584 0.189521
vn -0.479387 0.802581 0.355038
vn -0.346210 0.802583 0.485798
vn -0.179146 0.802582 0.569006
vn 0.005454 0.802583 0.596516
vn 0.189521 0.802583 0.565635
vn 0.355036 0.802583 0.479385
vn 0.485798 0.802582 0.346212
vn 0.569005 0.802583 0.179146
vn 0.596517 0.802582 -0.005454
vn 0.440576 0.885333 -0.148588
vn 0.373098 0.885332 -0.277462
vn 0.269096 0.885333 -0.379175
vn 0.138754 0.885332 -0.443772
vn -0.005170 0.885333 -0.464929
vn -0.148589 0.885332 -0.440577
vn -0.277462 0.885333 -0.373097
vn -0.379175 0.885333 -0.269096
vn -0.443773 0.885332 -0.138754
vn -0.464930 0.885332 0.005170
vn -0.440577 0.885333 0.148589
vn -0.373098 0.885332 0.277463
vn -0.269096 0.885333 0.379175
vn -0.138754 0.885332 0.443773
vn 0.005171 0.885332 0.464930
vn 0.148589 0.885332 0.440577
vn 0.277462 0.885333 0.373096
vn 0.379175 0.885332 0.269096
vn 0.443772 0.885333 0.138753
vn 0.464930 0.885332 -0.005170
vn 0.304706 0.946801 -0.103545
vn 0.257796 0.946801 -0.192636
vn 0.185649 0.946802 -0.262868
vn 0.095333 0.946802 -0.307374
vn -0.004317 0.946802 -0.321789
vn -0.103544 0.946802 -0.304706
vn -0.192636 0.946801 -0.257796
vn -0.262871 0.946801 -0.185650
vn -0.307375 0.946801 -0.095334
vn -0.321790 0.946801 0.004317
vn -0.304706 0.946801 0.103545
vn -0.257795 0.946802 0.192635
vn -0.185650 0.946802 0.262869
vn -0.095333 0.946802 0.307374
vn 0.004317 0.946802 0.321789
vn 0.103544 0.946802 0.304705
vn 0.192636 0.946801 0.257796
vn 0.262871 0.946801 0.185650
vn 0.307374 0.946801 0.095333
vn 0.321790 0.946801 -0.004317
vn 0.160697 0.985442 -0.055495
vn 0.135682 0.985442 -0.102440
vn 0.097385 0.985442 -0.139354
vn 0.049557 0.985442 -0.162628
vn -0.003123 0.985442 -0.169982
vn -0.055497 0.985442 -0.160698
vn -0.102439 0.985442 -0.135682
vn -0.139353 0.985442 -0.097387
vn -0.162627 0.985442 -0.049557
vn -0.169981 0.985442 0.003124
vn -0.160696 0.985443 0.055495
vn -0.135682 0.985442 0.102440
vn -0.097385 0.985442 0.139355
vn -0.049557 0.985442 0.162628
vn 0.003123 0.985442 0.169982
vn 0.055497 0.985442 0.160697
vn 0.102439 0.985442 0.135682
vn 0.139353 0.985442 0.097387
vn 0.162626 0.985443 0.049557
vn 0.169981 0.985442 -0.003124
vn -0.000000 -1.000000 -0.000000
vn -0.000000 1.000000 -0.000000
g pSphere1
usemtl lambert3SG
f 18/61/55 19/62/56 38/82/57
f 38/82/57 19/62/56 39/83/58
f 19/62/56 20/63/59 39/83/58
f 39/83/58 20/63/59 40/84/60
f 20/63/59 21/64/61 40/84/60
f 40/84/60 21/64/61 41/85/62
f 21/64/61 22/65/63 41/85/62
f 41/85/62 22/65/63 42/86/64
f 22/65/63 23/66/65 42/86/64
f 42/86/64 23/66/65 43/87/66
f 23/66/65 24/67/67 43/87/66
f 43/87/66 24/67/67 44/88/68
f 24/67/67 25/68/69 44/88/68
f 44/88/68 25/68/69 45/89/70
f 25/68/69 26/69/71 45/89/70
f 45/89/70 26/69/71 46/90/72
f 26/69/71 27/70/73 46/90/72
f 46/90/72 27/70/73 47/91/74
f 27/70/73 28/71/75 47/91/74
f 47/91/74 28/71/75 48/92/76
f 28/71/75 29/72/77 48/92/76
f 48/92/76 29/72/77 49/93/78
f 29/72/77 30/73/79 49/93/78
f 49/93/78 30/73/79 50/94/80
f 30/73/79 31/74/81 50/94/80
f 50/94/80 31/74/81 51/95/82
f 31/74/81 32/75/83 51/95/82
f 51/95/82 32/75/83 52/96/84
f 32/75/83 33/76/85 52/96/84
f 52/96/84 33/76/85 53/97/86
f 33/76/85 34/77/87 53/97/86
f 53/97/86 34/77/87 54/98/88
f 34/77/87 35/78/89 54/98/88
f 54/98/88 35/78/89 55/99/90
f 35/78/89 36/79/91 55/99/90
f 55/99/90 36/79/91 56/100/92
f 36/79/91 37/80/93 56/100/92
f 56/100/92 37/80/93 57/101/94
f 37/80/93 18/81/55 57/101/94
f 57/101/94 18/81/55 38/102/57
f 38/82/57 39/83/58 58/103/95
f 58/103/95 39/83/58 59/104/96
f 39/83/58 40/84/60 59/104/96
f 59/104/96 40/84/60 60/105/97
f 40/84/60 41/85/62 60/105/97
f 60/105/97 41/85/62 61/106/98
f 41/85/62 42/86/64 61/106/98
f 61/106/98 42/86/64 62/107/99
f 42/86/64 43/87/66 62/107/99
f 62/107/99 43/87/66 63/108/100
f 43/87/66 44/88/68 63/108/100
f 63/108/100 44/88/68 64/109/101
f 44/88/68 45/89/70 64/109/101
f 64/109/101 45/89/70 65/110/102
f 45/89/70 46/90/72 65/110/102
f 65/110/102 46/90/72 66/111/103
f 46/90/72 47/91/74 66/111/103
f 66/111/103 47/91/74 67/112/104
f 47/91/74 48/92/76 67/112/104
f 67/112/104 48/92/76 68/113/105
f 48/92/76 49/93/78 68/113/105
f 68/113/105 49/93/78 69/114/106
f 49/93/78 50/94/80 69/114/106
f 69/114/106 50/94/80 70/115/107
f 50/94/80 51/95/82 70/115/107
f 70/115/107 51/95/82 71/116/108
f 51/95/82 52/96/84 71/116/108
f 71/116/108 52/96/84 72/117/109
f 52/96/84 53/97/86 72/117/109
f 72/117/109 53/97/86 73/118/110
f 53/97/86 54/98/88 73/118/110
f 73/118/110 54/98/88 74/119/111
f 54/98/88 55/99/90 74/119/111
f 74/119/111 55/99/90 75/120/112
f 55/99/90 56/100/92 75/120/112
f 75/120/112 56/100/92 76/121/113
f 56/100/92 57/101/94 76/121/113
f 76/121/113 57/101/94 77/122/114
f 57/101/94 38/102/57 77/122/114
f 77/122/114 38/102/57 58/123/95
f 58/103/95 59/104/96 78/124/115
f 78/124/115 59/104/96 79/125/116
f 59/104/96 60/105/97 79/125/116
f 79/125/116 60/105/97 80/126/117
f 60/105/97 61/106/98 80/126/117
f 80/126/117 61/106/98 81/127/118
f 61/106/98 62/107/99 81/127/118
f 81/127/118 62/107/99 82/128/119
f 62/107/99 63/108/100 82/128/119
f 82/128/119 63/108/100 83/129/120
f 63/108/100 64/109/101 83/129/120
f 83/129/120 64/109/101 84/130/121
f 64/109/101 65/110/102 84/130/121
f 84/130/121 65/110/102 85/131/122
f 65/110/102 66/111/103 85/131/122
f 85/131/122 66/111/103 86/132/123
f 66/111/103 67/112/104 86/132/123
f 86/132/123 67/112/104 87/133/124
f 67/112/104 68/113/105 87/133/124
f 87/133/124 68/113/105 88/134/125
f 68/113/105 69/114/106 88/134/125
f 88/134/125 69/114/106 89/135/126
f 69/114/106 70/115/107 89/135/126
f 89/135/126 70/115/107 90/136/127
f 70/115/107 71/116/108 90/136/127
f 90/136/127 71/116/108 91/137/128
f 71/116/108 72/117/109 91/137/128
f 91/137/128 72/117/109 92/138/129
f 72/117/109 73/118/110 92/138/129
f 92/138/129 73/118/110 93/139/130
f 73/118/110 74/119/111 93/139/130
f 93/139/130 74/119/111 94/140/131
f 74/119/111 75/120/112 94/140/131
f 94/140/131 75/120/112 95/141/132
f 75/120/112 76/121/113 95/141/132
f 95/141/132 76/121/113 96/142/133
f 76/121/113 77/122/114 96/142/133
f 96/142/133 77/122/114 97/143/134
f 77/122/114 58/123/95 97/143/134
f 97/143/134 58/123/95 78/144/115
f 78/124/115 79/125/116 98/145/135
f 98/145/135 79/125/116 99/146/136
f 79/125/116 80/126/117 99/146/136
f 99/146/136 80/126/117 100/147/137
f 80/126/117 81/127/118 100/147/137
f 100/147/137 81/127/118 101/148/138
f 81/127/118 82/128/119 101/148/138
f 101/148/138 82/128/119 102/149/139
f 82/128/119 83/129/120 102/149/139
f 102/149/139 83/129/120 103/150/140
f 83/129/120 84/130/121 103/150/140
f 103/150/140 84/130/121 104/151/141
f 84/130/121 85/131/122 104/151/141
f 104/151/141 85/131/122 105/152/142
f 85/131/122 86/132/123 105/152/142
f 105/152/142 86/132/123 106/153/143
f 86/132/123 87/133/124 106/153/143
f 106/153/143 87/133/124 107/154/144
f 87/133/124 88/134/125 107/154/144
f 107/154/144 88/134/125 108/155/145
f 88/134/125 89/135/126 108/155/145
f 108/155/145 89/135/126 109/156/146
f 89/135/126 90/136/127 109/156/146
f 109/156/146 90/136/127 110/157/147
f 90/136/127 91/137/128 110/157/147
f 110/157/147 91/137/128 111/158/148
f 91/137/128 92/138/129 111/158/148
f 111/158/148 92/138/129 112/159/149
f 92/138/129 93/139/130 112/159/149
f 112/159/149 93/139/130 113/160/150
f 93/139/130 94/140/131 113/160/150
f 113/160/150 94/140/131 114/161/151
f 94/140/131 95/141/132 114/161/151
f 114/161/151 95/141/132 115/162/152
f 95/141/132 96/142/133 115/162/152
f 115/162/152 96/142/133 116/163/153
f 96/142/133 97/143/134 116/163/153
f 116/163/153 97/143/134 117/164/154
f 97/143/134 78/144/115 117/164/154
f 117/164/154 78/144/115 98/165/135
f 98/145/135 99/146/136 118/166/155
f 118/166/155 99/146/136 119/167/156
f 99/146/136 100/147/137 119/167/156
f 119/167/156 100/147/137 120/168/157
f 100/147/137 101/148/138 120/168/157
f 120/168/157 101/148/138 121/169/158
f 101/148/138 102/149/139 121/169/158
f 121/169/158 102/149/139 122/170/159
f 102/149/139 103/150/140 122/170/159
f 122/170/159 103/150/140 123/171/160
f 103/150/140 104/151/141 123/171/160
f 123/171/160 104/151/141 124/172/161
f 104/151/141 105/152/142 124/172/161
f 124/172/161 105/152/142 125/173/162
f 105/152/142 106/153/143 125/173/162
f 125/173/162 106/153/143 126/174/163
f 106/153/143 107/154/144 126/174/163
f 126/174/163 107/154/144 127/175/164
f 107/154/144 108/155/145 127/175/164
f 127/175/164 108/155/145 128/176/165
f 108/155/145 109/156/146 128/176/165
f 128/176/165 109/156/146 129/177/166
f 109/156/146 110/157/147 129/177/166
f 129/177/166 110/157/147 130/178/167
f 110/157/147 111/158/148 130/178/167
f 130/178/167 111/158/148 131/179/168
f 111/158/148 112/159/149 131/179/168
f 131/179/168 112/159/149 132/180/169
f 112/159/149 113/160/150 132/180/169
f 132/180/169 113/160/150 133/181/170
f 113/160/150 114/161/151 133/181/170
f 133/181/170 114/161/151 134/182/171
f 114/161/151 115/162/152 134/182/171
f 134/182/171 115/162/152 135/183/172
f 115/162/152 116/163/153 135/183/172
f 135/183/172 116/163/153 136/184/173
f 116/163/153 117/164/154 136/184/173
f 136/184/173 117/164/154 137/185/174
f 117/164/154 98/165/135 137/185/174
f 137/185/174 98/165/135 118/186/155
f 118/166/155 119/167/156 138/187/175
f 138/187/175 119/167/156 139/188/176
f 119/167/156 120/168/157 139/188/176
f 139/188/176 120/168/157 140/189/177
f 120/168/157 121/169/158 140/189/177
f 140/189/177 121/169/158 141/190/178
f 121/169/158 122/170/159 141/190/178
f 141/190/178 122/170/159 142/191/179
f 122/170/159 123/171/160 142/191/179
f 142/191/179 123/171/160 143/192/180
f 123/171/160 124/172/161 143/192/180
f 143/192/180 124/172/161 144/193/181
f 124/172/161 125/173/162 144/193/181
f 144/193/181 125/173/162 145/194/182
f 125/173/162 126/174/163 145/194/182
f 145/194/182 126/174/163 146/195/183
f 126/174/163 127/175/164 146/195/183
f 146/195/183 127/175/164 147/196/184
f 127/175/164 128/176/165 147/196/184
f 147/196/184 128/176/165 148/197/185
f 128/176/165 129/177/166 148/197/185
f 148/197/185 129/177/166 149/198/186
f 129/177/166 130/178/167 149/198/186
f 149/198/186 130/178/167 150/199/187
f 130/178/167 131/179/168 150/199/187
f 150/199/187 131/179/168 151/200/188
f 131/179/168 132/180/169 151/200/188
f 151/200/188 132/180/169 152/201/189
f 132/180/169 133/181/170 152/201/189
f 152/201/189 133/181/170 153/202/190
f 133/181/170 134/182/171 153/202/190
f 153/202/190 134/182/171 154/203/191
f 134/182/171 135/183/172 154/203/191
f 154/203/191 135/183/172 155/204/192
f 135/183/172 136/184/173 155/204/192
f 155/204/192 136/184/173 156/205/193
f 136/184/173 137/185/174 156/205/193
f 156/205/193 137/185/174 157/206/194
f 137/185/174 118/186/155 157/206/194
f 157/206/194 118/186/155 138/207/175
f 138/187/175 139/188/176 158/208/195
f 158/208/195 139/188/176 159/209/196
f 139/188/176 140/189/177 159/209/196
f 159/209/196 140/189/177 160/210/197
f 140/189/177 141/190/178 160/210/197
f 160/210/197 141/190/178 161/211/198
f 141/190/178 142/191/179 161/211/198
f 161/211/198 142/191/179 162/212/199
f 142/191/179 143/192/180 162/212/199
f 162/212/199 143/192/180 163/213/200
f 143/192/180 144/193/181 163/213/200
f 163/213/200 144/193/181 164/214/201
f 144/193/181 145/194/182 164/214/201
f 164/214/201 145/194/182 165/215/202
f 145/194/182 146/195/183 165/215/202
f 165/215/202 146/195/183 166/216/203
f 146/195/183 147/196/184 166/216/203
f 166/216/203 147/196/184 167/217/204
f 147/196/184 148/197/185 167/217/204
f 167/217/204 148/197/185 168/218/205
f 148/197/185 149/198/186 168/218/205
f 168/218/205 149/198/186 169/219/206
f 149/198/186 150/199/187 169/219/206
f 169/219/206 150/199/187 170/220/207
f 150/199/187 151/200/188 170/220/207
f 170/220/207 151/200/188 171/221/208
f 151/200/188 152/201/189 171/221/208
f 171/221/208 152/201/189 172/222/209
f 152/201/189 153/202/190 172/222/209
f 172/222/209 153/202/190 173/223/210
f 153/202/190 154/203/191 173/223/210
f 173/223/210 154/203/191 174/224/211
f 154/203/191 155/204/192 174/224/211
f 174/224/211 155/204/192 175/225/212
f 155/204/192 156/205/193 175/225/212
f 175/225/212 156/205/193 176/226/213
f 156/205/193 157/206/194 176/226/213
f 176/226/213 157/206/194 177/227/214
f 157/206/194 138/207/175 177/227/214
f 177/227/214 138/207/175 158/228/195
f 158/208/195 159/209/196 178/229/215
f 178/229/215 159/209/196 179/230/216
f 159/209/196 160/210/197 179/230/216
f 179/230/216 160/210/197 180/231/217
f 160/210/197 161/211/198 180/231/217
f 180/231/217 161/211/198 181/232/218
f 161/211/198 162/212/199 181/232/218
f 181/232/218 162/212/199 182/233/219
f 162/212/199 163/213/200 182/233/219
f 182/233/219 163/213/200 183/234/220
f 163/213/200 164/214/201 183/234/220
f 183/234/220 164/214/201 184/235/221
f 164/214/201 165/215/202 184/235/221
f 184/235/221 165/215/202 185/236/222
f 165/215/202 166/216/203 185/236/222
f 185/236/222 166/216/203 186/237/223
f 166/216/203 167/217/204 186/237/223
f 186/237/223 167/217/204 187/238/224
f 167/217/204 168/218/205 187/238/224
f 187/238/224 168/218/205 188/239/225
f 168/218/205 169/219/206 188/239/225
f 188/239/225 169/219/206 189/240/226
f 169/219/206 170/220/207 189/240/226
f 189/240/226 170/220/207 190/241/227
f 170/220/207 171/221/208 190/241/227
f 190/241/227 171/221/208 191/242/228
f 171/221/208 172/222/209 191/242/228
f 191/242/228 172/222/209 192/243/229
f 172/222/209 173/223/210 192/243/229
f 192/243/229 173/223/210 193/244/230
f 173/223/210 174/224/211 193/244/230
f 193/244/230 174/224/211 194/245/231
f 174/224/211 175/225/212 194/245/231
f 194/245/231 175/225/212 195/246/232
f 175/225/212 176/226/213 195/246/232
f 195/246/232 176/226/213 196/247/233
f 176/226/213 177/227/214 196/247/233
f 196/247/233 177/227/214 197/248/234
f 177/227/214 158/228/195 197/248/234
f 197/248/234 158/228/195 178/249/215
f 178/229/215 179/230/216 198/250/235
f 198/250/235 179/230/216 199/251/236
f 179/230/216 180/231/217 199/251/236
f 199/251/236 180/231/217 200/252/237
f 180/231/217 181/232/218 200/252/237
f 200/252/237 181/232/218 201/253/238
f 181/232/218 182/233/219 201/253/238
f 201/253/238 182/233/219 202/254/239
f 182/233/219 183/234/220 202/254/239
f 202/254/239 183/234/220 203/255/240
f 183/234/220 184/235/221 203/255/240
f 203/255/240 184/235/221 204/256/241
f 184/235/221 185/236/222 204/256/241
f 204/256/241 185/236/222 205/257/242
f 185/236/222 186/237/223 205/257/242
f 205/257/242 186/237/223 206/258/243
f 186/237/223 187/238/224 206/258/243
f 206/258/243 187/238/224 207/259/244
f 187/238/224 188/239/225 207/259/244
f 207/259/244 188/239/225 208/260/245
f 188/239/225 189/240/226 208/260/245
f 208/260/245 189/240/226 209/261/246
f 189/240/226 190/241/227 209/261/246
f 209/261/246 190/241/227 210/262/247
f 190/241/227 191/242/228 210/262/247
f 210/262/247 191/242/228 211/263/248
f 191/242/228 192/243/229 211/263/248
f 211/263/248 192/243/229 212/264/249
f 192/243/229 193/244/230 212/264/249
f 212/264/249 193/244/230 213/265/250
f 193/244/230 194/245/231 213/265/250
f 213/265/250 194/245/231 214/266/251
f 194/245/231 195/246/232 214/266/251
f 214/266/251 195/246/232 215/267/252
f 195/246/232 196/247/233 215/267/252
f 215/267/252 196/247/233 216/268/253
f 196/247/233 197/248/234 216/268/253
f 216/268/253 197/248/234 217/269/254
f 197/248/234 178/249/215 217/269/254
f 217/269/254 178/249/215 198/270/235
f 198/250/235 199/251/236 218/271/255
f 218/271/255 199/251/236 219/272/256
f 199/251/236 200/252/237 219/272/256
f 219/272/256 200/252/237 220/273/257
f 200/252/237 201/253/238 220/273/257
f 220/273/257 201/253/238 221/274/258
f 201/253/238 202/254/239 221/274/258
f 221/274/258 202/254/239 222/275/259
f 202/254/239 203/255/240 222/275/259
f 222/275/259 203/255/240 223/276/260
f 203/255/240 204/256/241 223/276/260
f 223/276/260 204/256/241 224/277/261
f 204/256/241 205/257/242 224/277/261
f 224/277/261 205/257/242 225/278/262
f 205/257/242 206/258/243 225/278/262
f 225/278/262 206/258/243 226/279/263
f 206/258/243 207/259/244 226/279/263
f 226/279/263 207/259/244 227/280/264
f 207/259/244 208/260/245 227/280/264
f 227/280/264 208/260/245 228/281/265
f 208/260/245 209/261/246 228/281/265
f 228/281/265 209/261/246 229/282/266
f 209/261/246 210/262/247 229/282/266
f 229/282/266 210/262/247 230/283/267
f 210/262/247 211/263/248 230/283/267
f 230/283/267 211/263/248 231/284/268
f 211/263/248 212/264/249 231/284/268
f 231/284/268 212/264/249 232/285/269
f 212/264/249 213/265/250 232/285/269
f 232/285/269 213/265/250 233/286/270
f 213/265/250 214/266/251 233/286/270
f 233/286/270 214/266/251 234/287/271
f 214/266/251 215/267/252 234/287/271
f 234/287/271 215/267/252 235/288/272
f 215/267/252 216/268/253 235/288/272
f 235/288/272 216/268/253 236/289/273
f 216/268/253 217/269/254 236/289/273
f 236/289/273 217/269/254 237/290/274
f 217/269/254 198/270/235 237/290/274
f 237/290/274 198/270/235 218/291/255
f 218/271/255 219/272/256 238/292/275
f 238/292/275 219/272/256 239/293/276
f 219/272/256 220/273/257 239/293/276
f 239/293/276 220/273/257 240/294/277
f 220/273/257 221/274/258 240/294/277
f 240/294/277 221/274/258 241/295/278
f 221/274/258 222/275/259 241/295/278
f 241/295/278 222/275/259 242/296/279
f 222/275/259 223/276/260 242/296/279
f 242/296/279 223/276/260 243/297/280
f 223/276/260 224/277/261 243/297/280
f 243/297/280 224/277/261 244/298/281
f 224/277/261 225/278/262 244/298/281
f 244/298/281 225/278/262 245/299/282
f 225/278/262 226/279/263 245/299/282
f 245/299/282 226/279/263 246/300/283
f 226/279/263 227/280/264 246/300/283
f 246/300/283 227/280/264 247/301/284
f 227/280/264 228/281/265 247/301/284
f 247/301/284 228/281/265 248/302/285
f 228/281/265 229/282/266 248/302/285
f 248/302/285 229/282/266 249/303/286
f 229/282/266 230/283/267 249/303/286
f 249/303/286 230/283/267 250/304/287
f 230/283/267 231/284/268 250/304/287
f 250/304/287 231/284/268 251/305/288
f 231/284/268 232/285/269 251/305/288
f 251/305/288 232/285/269 252/306/289
f 232/285/269 233/286/270 252/306/289
f 252/306/289 233/286/270 253/307/290
f 233/286/270 234/287/271 253/307/290
f 253/307/290 234/287/271 254/308/291
f 234/287/271 235/288/272 254/308/291
f 254/308/291 235/288/272 255/309/292
f 235/288/272 236/289/273 255/309/292
f 255/309/292 236/289/273 256/310/293
f 236/289/273 237/290/274 256/310/293
f 256/310/293 237/290/274 257/311/294
f 237/290/274 218/291/255 257/311/294
f 257/311/294 218/291/255 238/312/275
f 238/292/275 239/293/276 258/313/295
f 258/313/295 239/293/276 259/314/296
f 239/293/276 240/294/277 259/314/296
f 259/314/296 240/294/277 260/315/297
f 240/294/277 241/295/278 260/315/297
f 260/315/297 241/295/278 261/316/298
f 241/295/278 242/296/279 261/316/298
f 261/316/298 242/296/279 262/317/299
f 242/296/279 243/297/280 262/317/299
f 262/317/299 243/297/280 263/318/300
f 243/297/280 244/298/281 263/318/300
f 263/318/300 244/298/281 264/319/301
f 244/298/281 245/299/282 264/319/301
f 264/319/301 245/299/282 265/320/302
f 245/299/282 246/300/283 265/320/302
f 265/320/302 246/300/283 266/321/303
f 246/300/283 247/301/284 266/321/303
f 266/321/303 247/301/284 267/322/304
f 247/301/284 248/302/285 267/322/304
f 267/322/304 248/302/285 268/323/305
f 248/302/285 249/303/286 268/323/305
f 268/323/305 249/303/286 269/324/306
f 249/303/286 250/304/287 269/324/306
f 269/324/306 250/304/287 270/325/307
f 250/304/287 251/305/288 270/325/307
f 270/325/307 251/305/288 271/326/308
f 251/305/288 252/306/289 271/326/308
f 271/326/308 252/306/289 272/327/309
f 252/306/289 253/307/290 272/327/309
f 272/327/309 253/307/290 273/328/310
f 253/307/290 254/308/291 273/328/310
f 273/328/310 254/308/291 274/329/311
f 254/308/291 255/309/292 274/329/311
f 274/329/311 255/309/292 275/330/312
f 255/309/292 256/310/293 275/330/312
f 275/330/312 256/310/293 276/331/313
f 256/310/293 257/311/294 276/331/313
f 276/331/313 257/311/294 277/332/314
f 257/311/294 238/312/275 277/332/314
f 277/332/314 238/312/275 258/333/295
f 258/313/295 259/314/296 278/334/315
f 278/334/315 259/314/296 279/335/316
f 259/314/296 260/315/297 279/335/316
f 279/335/316 260/315/297 280/336/317
f 260/315/297 261/316/298 280/336/317
f 280/336/317 261/316/298 281/337/318
f 261/316/298 262/317/299 281/337/318
f 281/337/318 262/317/299 282/338/319
f 262/317/299 263/318/300 282/338/319
f 282/338/319 263/318/300 283/339/320
f 263/318/300 264/319/301 283/339/320
f 283/339/320 264/319/301 284/340/321
f 264/319/301 265/320/302 284/340/321
f 284/340/321 265/320/302 285/341/322
f 265/320/302 266/321/303 285/341/322
f 285/341/322 266/321/303 286/342/323
f 266/321/303 267/322/304 286/342/323
f 286/342/323 267/322/304 287/343/324
f 267/322/304 268/323/305 287/343/324
f 287/343/324 268/323/305 288/344/325
f 268/323/305 269/324/306 288/344/325
f 288/344/325 269/324/306 289/345/326
f 269/324/306 270/325/307 289/345/326
f 289/345/326 270/325/307 290/346/327
f 270/325/307 271/326/308 290/346/327
f 290/346/327 271/326/308 291/347/328
f 271/326/308 272/327/309 291/347/328
f 291/347/328 272/327/309 292/348/329
f 272/327/309 273/328/310 292/348/329
f 292/348/329 273/328/310 293/349/330
f 273/328/310 274/329/311 293/349/330
f 293/349/330 274/329/311 294/350/331
f 274/329/311 275/330/312 294/350/331
f 294/350/331 275/330/312 295/351/332
f 275/330/312 276/331/313 295/351/332
f 295/351/332 276/331/313 296/352/333
f 276/331/313 277/332/314 296/352/333
f 296/352/333 277/332/314 297/353/334
f 277/332/314 258/333/295 297/353/334
f 297/353/334 258/333/295 278/354/315
f 278/334/315 279/335/316 298/355/335
f 298/355/335 279/335/316 299/356/336
f 279/335/316 280/336/317 299/356/336
f 299/356/336 280/336/317 300/357/337
f 280/336/317 281/337/318 300/357/337
f 300/357/337 281/337/318 301/358/338
f 281/337/318 282/338/319 301/358/338
f 301/358/338 282/338/319 302/359/339
f 282/338/319 283/339/320 302/359/339
f 302/359/339 283/339/320 303/360/340
f 283/339/320 284/340/321 303/360/340
f 303/360/340 284/340/321 304/361/341
f 284/340/321 285/341/322 304/361/341
f 304/361/341 285/341/322 305/362/342
f 285/341/322 286/342/323 305/362/342
f 305/362/342 286/342/323 306/363/343
f 286/342/323 287/343/324 306/363/343
f 306/363/343 287/343/324 307/364/344
f 287/343/324 288/344/325 307/364/344
f 307/364/344 288/344/325 308/365/345
f 288/344/325 289/345/326 308/365/345
f 308/365/345 289/345/326 309/366/346
f 289/345/326 290/346/327 309/366/346
f 309/366/346 290/346/327 310/367/347
f 290/346/327 291/347/328 310/367/347
f 310/367/347 291/347/328 311/368/348
f 291/347/328 292/348/329 311/368/348
f 311/368/348 292/348/329 312/369/349
f 292/348/329 293/349/330 312/369/349
f 312/369/349 293/349/330 313/370/350
f 293/349/330 294/350/331 313/370/350
f 313/370/350 294/350/331 314/371/351
f 294/350/331 295/351/332 314/371/351
f 314/371/351 295/351/332 315/372/352
f 295/351/332 296/352/333 315/372/352
f 315/372/352 296/352/333 316/373/353
f 296/352/333 297/353/334 316/373/353
f 316/373/353 297/353/334 317/374/354
f 297/353/334 278/354/315 317/374/354
f 317/374/354 278/354/315 298/375/335
f 298/355/335 299/356/336 318/376/355
f 318/376/355 299/356/336 319/377/356
f 299/356/336 300/357/337 319/377/356
f 319/377/356 300/357/337 320/378/357
f 300/357/337 301/358/338 320/378/357
f 320/378/357 301/358/338 321/379/358
f 301/358/338 302/359/339 321/379/358
f 321/379/358 302/359/339 322/380/359
f 302/359/339 303/360/340 322/380/359
f 322/380/359 303/360/340 323/381/360
f 303/360/340 304/361/341 323/381/360
f 323/381/360 304/361/341 324/382/361
f 304/361/341 305/362/342 324/382/361
f 324/382/361 305/362/342 325/383/362
f 305/362/342 306/363/343 325/383/362
f 325/383/362 306/363/343 326/384/363
f 306/363/343 307/364/344 326/384/363
f 326/384/363 307/364/344 327/385/364
f 307/364/344 308/365/345 327/385/364
f 327/385/364 308/365/345 328/386/365
f 308/365/345 309/366/346 328/386/365
f 328/386/365 309/366/346 329/387/366
f 309/366/346 310/367/347 329/387/366
f 329/387/366 310/367/347 330/388/367
f 310/367/347 311/368/348 330/388/367
f 330/388/367 311/368/348 331/389/368
f 311/368/348 312/369/349 331/389/368
f 331/389/368 312/369/349 332/390/369
f 312/369/349 313/370/350 332/390/369
f 332/390/369 313/370/350 333/391/370
f 313/370/350 314/371/351 333/391/370
f 333/391/370 314/371/351 334/392/371
f 314/371/351 315/372/352 334/392/371
f 334/392/371 315/372/352 335/393/372
f 315/372/352 316/373/353 335/393/372
f 335/393/372 316/373/353 336/394/373
f 316/373/353 317/374/354 336/394/373
f 336/394/373 317/374/354 337/395/374
f 317/374/354 298/375/335 337/395/374
f 337/395/374 298/375/335 318/396/355
f 318/376/355 319/377/356 338/397/375
f 338/397/375 319/377/356 339/398/376
f 319/377/356 320/378/357 339/398/376
f 339/398/376 320/378/357 340/399/377
f 320/378/357 321/379/358 340/399/377
f 340/399/377 321/379/358 341/400/378
f 321/379/358 322/380/359 341/400/378
f 341/400/378 322/380/359 342/401/379
f 322/380/359 323/381/360 342/401/379
f 342/401/379 323/381/360 343/402/380
f 323/381/360 324/382/361 343/402/380
f 343/402/380 324/382/361 344/403/381
f 324/382/361 325/383/362 344/403/381
f 344/403/381 325/383/362 345/404/382
f 325/383/362 326/384/363 345/404/382
f 345/404/382 326/384/363 346/405/383
f 326/384/363 327/385/364 346/405/383
f 346/405/383 327/385/364 347/406/384
f 327/385/364 328/386/365 347/406/384
f 347/406/384 328/386/365 348/407/385
f 328/386/365 329/387/366 348/407/385
f 348/407/385 329/387/366 349/408/386
f 329/387/366 330/388/367 349/408/386
f 349/408/386 330/388/367 350/409/387
f 330/388/367 331/389/368 350/409/387
f 350/409/387 331/389/368 351/410/388
f 331/389/368 332/390/369 351/410/388
f 351/410/388 332/390/369 352/411/389
f 332/390/369 333/391/370 352/411/389
f 352/411/389 333/391/370 353/412/390
f 333/391/370 334/392/371 353/412/390
f 353/412/390 334/392/371 354/413/391
f 334/392/371 335/393/372 354/413/391
f 354/413/391 335/393/372 355/414/392
f 335/393/372 336/394/373 355/414/392
f 355/414/392 336/394/373 356/415/393
f 336/394/373 337/395/374 356/415/393
f 356/415/393 337/395/374 357/416/394
f 337/395/374 318/396/355 357/416/394
f 357/416/394 318/396/355 338/417/375
f 338/397/375 339/398/376 358/418/395
f 358/418/395 339/398/376 359/419/396
f 339/398/376 340/399/377 359/419/396
f 359/419/396 340/399/377 360/420/397
f 340/399/377 341/400/378 360/420/397
f 360/420/397 341/400/378 361/421/398
f 341/400/378 342/401/379 361/421/398
f 361/421/398 342/401/379 362/422/399
f 342/401/379 343/402/380 362/422/399
f 362/422/399 343/402/380 363/423/400
f 343/402/380 344/403/381 363/423/400
f 363/423/400 344/403/381 364/424/401
f 344/403/381 345/404/382 364/424/401
f 364/424/401 345/404/382 365/425/402
f 345/404/382 346/405/383 365/425/402
f 365/425/402 346/405/383 366/426/403
f 346/405/383 347/406/384 366/426/403
f 366/426/403 347/406/384 367/427/404
f 347/406/384 348/407/385 367/427/404
f 367/427/404 348/407/385 368/428/405
f 348/407/385 349/408/386 368/428/405
f 368/428/405 349/408/386 369/429/406
f 349/408/386 350/409/387 369/429/406
f 369/429/406 350/409/387 370/430/407
f 350/409/387 351/410/388 370/430/407
f 370/430/407 351/410/388 371/431/408
f 351/410/388 352/411/389 371/431/408
f 371/431/408 352/411/389 372/432/409
f 352/411/389 353/412/390 372/432/409
f 372/432/409 353/412/390 373/433/410
f 353/412/390 354/413/391 373/433/410
f 373/433/410 354/413/391 374/434/411
f 354/413/391 355/414/392 374/434/411
f 374/434/411 355/414/392 375/435/412
f 355/414/392 356/415/393 375/435/412
f 375/435/412 356/415/393 376/436/413
f 356/415/393 357/416/394 376/436/413
f 376/436/413 357/416/394 377/437/414
f 357/416/394 338/417/375 377/437/414
f 377/437/414 338/417/375 358/438/395
f 358/418/395 359/419/396 378/439/415
f 378/439/415 359/419/396 379/440/416
f 359/419/396 360/420/397 379/440/416
f 379/440/416 360/420/397 380/441/417
f 360/420/397 361/421/398 380/441/417
f 380/441/417 361/421/398 381/442/418
f 361/421/398 362/422/399 381/442/418
f 381/442/418 362/422/399 382/443/419
f 362/422/399 363/423/400 382/443/419
f 382/443/419 363/423/400 383/444/420
f 363/423/400 364/424/401 383/444/420
f 383/444/420 364/424/401 384/445/421
f 364/424/401 365/425/402 384/445/421
f 384/445/421 365/425/402 385/446/422
f 365/425/402 366/426/403 385/446/422
f 385/446/422 366/426/403 386/447/423
f 366/426/403 367/427/404 386/447/423
f 386/447/423 367/427/404 387/448/424
f 367/427/404 368/428/405 387/448/424
f 387/448/424 368/428/405 388/449/425
f 368/428/405 369/429/406 388/449/425
f 388/449/425 369/429/406 389/450/426
f 369/429/406 370/430/407 389/450/426
f 389/450/426 370/430/407 390/451/427
f 370/430/407 371/431/408 390/451/427
f 390/451/427 371/431/408 391/452/428
f 371/431/408 372/432/409 391/452/428
f 391/452/428 372/432/409 392/453/429
f 372/432/409 373/433/410 392/453/429
f 392/453/429 373/433/410 393/454/430
f 373/433/410 374/434/411 393/454/430
f 393/454/430 374/434/411 394/455/431
f 374/434/411 375/435/412 394/455/431
f 394/455/431 375/435/412 395/456/432
f 375/435/412 376/436/413 395/456/432
f 395/456/432 376/436/413 396/457/433
f 376/436/413 377/437/414 396/457/433
f 396/457/433 377/437/414 397/458/434
f 377/437/414 358/438/395 397/458/434
f 397/458/434 358/438/395 378/459/415
f 19/62/56 18/61/55 398/460/435
f 20/63/59 19/62/56 398/461/435
f 21/64/61 20/63/59 398/462/435
f 22/65/63 21/64/61 398/463/435
f 23/66/65 22/65/63 398/464/435
f 24/67/67 23/66/65 398/465/435
f 25/68/69 24/67/67 398/466/435
f 26/69/71 25/68/69 398/467/435
f 27/70/73 26/69/71 398/468/435
f 28/71/75 27/70/73 398/469/435
f 29/72/77 28/71/75 398/470/435
f 30/73/79 29/72/77 398/471/435
f 31/74/81 30/73/79 398/472/435
f 32/75/83 31/74/81 398/473/435
f 33/76/85 32/75/83 398/474/435
f 34/77/87 33/76/85 398/475/435
f 35/78/89 34/77/87 398/476/435
f 36/79/91 35/78/89 398/477/435
f 37/80/93 36/79/91 398/478/435
f 18/81/55 37/80/93 398/479/435
f 378/439/415 379/440/416 399/480/436
f 379/440/416 380/441/417 399/481/436
f 380/441/417 381/442/418 399/482/436
f 381/442/418 382/443/419 399/483/436
f 382/443/419 383/444/420 399/484/436
f 383/444/420 384/445/421 399/485/436
f 384/445/421 385/446/422 399/486/436
f 385/446/422 386/447/423 399/487/436
f 386/447/423 387/448/424 399/488/436
f 387/448/424 388/449/425 399/489/436
f 388/449/425 389/450/426 399/490/436
f 389/450/426 390/451/427 399/491/436
f 390/451/427 391/452/428 399/492/436
f 391/452/428 392/453/429 399/493/436
f 392/453/429 393/454/430 399/494/436
f 393/454/430 394/455/431 399/495/436
f 394/455/431 395/456/432 399/496/436
f 395/456/432 396/457/433 399/497/436
f 396/457/433 397/458/434 399/498/436
f 397/458/434 378/459/415 399/499/436
